\relax 
\providecommand\hyper@newdestlabel[2]{}
\catcode `"\active 
\catcode `-\active 
\providecommand\HyperFirstAtBeginDocument{\AtBeginDocument}
\HyperFirstAtBeginDocument{\ifx\hyper@anchor\@undefined
\global\let\oldcontentsline\contentsline
\gdef\contentsline#1#2#3#4{\oldcontentsline{#1}{#2}{#3}}
\global\let\oldnewlabel\newlabel
\gdef\newlabel#1#2{\newlabelxx{#1}#2}
\gdef\newlabelxx#1#2#3#4#5#6{\oldnewlabel{#1}{{#2}{#3}}}
\AtEndDocument{\ifx\hyper@anchor\@undefined
\let\contentsline\oldcontentsline
\let\newlabel\oldnewlabel
\fi}
\fi}
\global\let\hyper@last\relax 
\gdef\HyperFirstAtBeginDocument#1{#1}
\providecommand\HyField@AuxAddToFields[1]{}
\providecommand\HyField@AuxAddToCoFields[2]{}
\babel@aux{czech}{}
\@writefile{toc}{\contentsline {chapter}{\numberline {1}Kinematika}{8}{chapter.1}\protected@file@percent }
\@writefile{lof}{\addvspace {10\p@ }}
\@writefile{lot}{\addvspace {10\p@ }}
\@writefile{toc}{\contentsline {section}{\numberline {1.1}Z\IeC {\'a}kladn\IeC {\'\i } pojmy}{8}{section.1.1}\protected@file@percent }
\@writefile{toc}{\contentsline {section}{\numberline {1.2}D\IeC {\v e}len\IeC {\'\i } pohyb\IeC {\r u}}{8}{section.1.2}\protected@file@percent }
\@writefile{toc}{\contentsline {subsection}{\numberline {1.2.1}Podle tvaru trajektorie}{8}{subsection.1.2.1}\protected@file@percent }
\@writefile{toc}{\contentsline {subsection}{\numberline {1.2.2}Podle ura\IeC {\v z}en\IeC {\'e} vzd\IeC {\'a}lenosti za jednotku \IeC {\v c}asu}{8}{subsection.1.2.2}\protected@file@percent }
\@writefile{toc}{\contentsline {paragraph}{Note}{8}{section*.2}\protected@file@percent }
\@writefile{toc}{\contentsline {section}{\numberline {1.3}Z\IeC {\'a}kladn\IeC {\'\i } veli\IeC {\v c}iny}{9}{section.1.3}\protected@file@percent }
\@writefile{toc}{\contentsline {section}{\numberline {1.4}Grafy pohyb\IeC {\r u}}{9}{section.1.4}\protected@file@percent }
\@writefile{toc}{\contentsline {subsection}{\numberline {1.4.1}Pohyb rovnom\IeC {\v e}rn\IeC {\'y}}{9}{subsection.1.4.1}\protected@file@percent }
\providecommand*\caption@xref[2]{\@setref\relax\@undefined{#1}}
\newlabel{Fig:K1}{{1.1a}{10}{Rychlost rovnoměrného pohybu\relax }{figure.caption.3}{}}
\newlabel{sub@Fig:K1}{{a}{10}{Rychlost rovnoměrného pohybu\relax }{figure.caption.3}{}}
\newlabel{Fig:K2}{{1.1b}{10}{Dráha rovnoměrného pohybu\relax }{figure.caption.3}{}}
\newlabel{sub@Fig:K2}{{b}{10}{Dráha rovnoměrného pohybu\relax }{figure.caption.3}{}}
\@writefile{toc}{\contentsline {subsection}{\numberline {1.4.2}Pohyb rovnom\IeC {\v e}rn\IeC {\v e} zrychlen\IeC {\'y}}{10}{subsection.1.4.2}\protected@file@percent }
\newlabel{Fig:K3}{{1.2a}{10}{Zrychlení\relax }{figure.caption.4}{}}
\newlabel{sub@Fig:K3}{{a}{10}{Zrychlení\relax }{figure.caption.4}{}}
\newlabel{Fig:K4}{{1.2b}{10}{Rychlost\relax }{figure.caption.4}{}}
\newlabel{sub@Fig:K4}{{b}{10}{Rychlost\relax }{figure.caption.4}{}}
\newlabel{Fig:K5}{{1.2c}{10}{Dráha\relax }{figure.caption.4}{}}
\newlabel{sub@Fig:K5}{{c}{10}{Dráha\relax }{figure.caption.4}{}}
\@writefile{toc}{\contentsline {section}{\numberline {1.5}Skl\IeC {\'a}d\IeC {\'a}n\IeC {\'\i } pohyb\IeC {\r u}}{11}{section.1.5}\protected@file@percent }
\@writefile{toc}{\contentsline {section}{\numberline {1.6}Rovnom\IeC {\v e}rn\IeC {\'y} pohyb po kru\IeC {\v z}nici}{11}{section.1.6}\protected@file@percent }
\@writefile{lof}{\contentsline {figure}{\numberline {1.3}{\ignorespaces Pohyb po kru\IeC {\v z}nici\relax }}{11}{figure.caption.5}\protected@file@percent }
\newlabel{Fig:K6}{{1.3}{11}{Pohyb po kružnici\relax }{figure.caption.5}{}}
\@writefile{toc}{\contentsline {section}{\numberline {1.7}Rovnom\IeC {\v e}rn\IeC {\v e} zrychlen\IeC {\'y} pohyb po kru\IeC {\v z}nici}{12}{section.1.7}\protected@file@percent }
\@writefile{toc}{\contentsline {chapter}{\numberline {2}Dynamika}{13}{chapter.2}\protected@file@percent }
\@writefile{lof}{\addvspace {10\p@ }}
\@writefile{lot}{\addvspace {10\p@ }}
\@writefile{toc}{\contentsline {section}{\numberline {2.1}Z\IeC {\'a}kladn\IeC {\'\i } pojmy}{13}{section.2.1}\protected@file@percent }
\@writefile{toc}{\contentsline {section}{\numberline {2.2}Newtonovy pohybov\IeC {\'e} z\IeC {\'a}kony}{13}{section.2.2}\protected@file@percent }
\@writefile{toc}{\contentsline {subsection}{\numberline {2.2.1}Prvn\IeC {\'\i } Newton\IeC {\r u}v pohybov\IeC {\'y} z\IeC {\'a}kon}{13}{subsection.2.2.1}\protected@file@percent }
\@writefile{toc}{\contentsline {paragraph}{Definice}{13}{section*.6}\protected@file@percent }
\@writefile{toc}{\contentsline {subsubsection}{Pojmy}{14}{section*.7}\protected@file@percent }
\@writefile{toc}{\contentsline {subsection}{\numberline {2.2.2}Druh\IeC {\'y} Newton\IeC {\r u}v pohybov\IeC {\'y} z\IeC {\'a}kon}{14}{subsection.2.2.2}\protected@file@percent }
\@writefile{toc}{\contentsline {paragraph}{Definice}{14}{section*.8}\protected@file@percent }
\@writefile{toc}{\contentsline {subsubsection}{Origini\IeC {\'a}ln\IeC {\'\i } definice s\IeC {\'\i }ly}{14}{section*.9}\protected@file@percent }
\@writefile{toc}{\contentsline {subsection}{\numberline {2.2.3}T\IeC {\v r}et\IeC {\'\i } Newton\IeC {\r u}v pohybov\IeC {\'y} z\IeC {\'a}kon}{14}{subsection.2.2.3}\protected@file@percent }
\@writefile{toc}{\contentsline {paragraph}{Definice}{14}{section*.10}\protected@file@percent }
\@writefile{toc}{\contentsline {paragraph}{Note}{14}{section*.11}\protected@file@percent }
\@writefile{toc}{\contentsline {paragraph}{U\IeC {\v z}it\IeC {\'\i }}{14}{section*.12}\protected@file@percent }
\@writefile{toc}{\contentsline {section}{\numberline {2.3}Z\IeC {\'a}kon zachov\IeC {\'a}n\IeC {\'\i } hybnosti}{14}{section.2.3}\protected@file@percent }
\@writefile{toc}{\contentsline {paragraph}{Definice}{14}{section*.13}\protected@file@percent }
\@writefile{toc}{\contentsline {section}{\numberline {2.4}Skl\IeC {\'a}d\IeC {\'a}n\IeC {\'\i } sil}{14}{section.2.4}\protected@file@percent }
\@writefile{toc}{\contentsline {subsubsection}{Vektorov\IeC {\'y} sou\IeC {\v c}et}{15}{section*.14}\protected@file@percent }
\@writefile{lof}{\contentsline {figure}{\numberline {2.1}{\ignorespaces Skl\IeC {\'a}d\IeC {\'a}n\IeC {\'\i } sil\relax }}{15}{figure.caption.15}\protected@file@percent }
\newlabel{Fig:D1}{{2.1}{15}{Skládání sil\relax }{figure.caption.15}{}}
\@writefile{toc}{\contentsline {section}{\numberline {2.5}Setrva\IeC {\v c}n\IeC {\'e} s\IeC {\'\i }ly}{15}{section.2.5}\protected@file@percent }
\@writefile{toc}{\contentsline {subsection}{\numberline {2.5.1}P\IeC {\v r}\IeC {\'\i }klad: Kuli\IeC {\v c}ka ve vag\IeC {\'o}nu}{15}{subsection.2.5.1}\protected@file@percent }
\@writefile{lof}{\contentsline {figure}{\numberline {2.2}{\ignorespaces Kuli\IeC {\v c}ka ve vag\IeC {\'o}nu\relax }}{16}{figure.caption.16}\protected@file@percent }
\newlabel{Fig:D2}{{2.2}{16}{Kulička ve vagónu\relax }{figure.caption.16}{}}
\@writefile{toc}{\contentsline {subsection}{\numberline {2.5.2}P\IeC {\v r}\IeC {\'\i }klad: V\IeC {\'y}tah}{16}{subsection.2.5.2}\protected@file@percent }
\@writefile{toc}{\contentsline {section}{\numberline {2.6}Dost\IeC {\v r}ediv\IeC {\'a} s\IeC {\'\i }la}{16}{section.2.6}\protected@file@percent }
\@writefile{toc}{\contentsline {section}{\numberline {2.7}Smykov\IeC {\'e} t\IeC {\v r}en\IeC {\'\i } a valiv\IeC {\'y} odpor}{16}{section.2.7}\protected@file@percent }
\@writefile{toc}{\contentsline {subsection}{\numberline {2.7.1}Smykov\IeC {\'e} t\IeC {\v r}en\IeC {\'\i }}{16}{subsection.2.7.1}\protected@file@percent }
\@writefile{toc}{\contentsline {subsection}{\numberline {2.7.2}Valiv\IeC {\'y} odpor}{17}{subsection.2.7.2}\protected@file@percent }
\@writefile{lof}{\contentsline {figure}{\numberline {2.3}{\ignorespaces Valiv\IeC {\'y} odpor\relax }}{17}{figure.caption.17}\protected@file@percent }
\newlabel{Fig:D3}{{2.3}{17}{Valivý odpor\relax }{figure.caption.17}{}}
\@writefile{toc}{\contentsline {chapter}{\numberline {3}Mechanick\IeC {\'a} pr\IeC {\'a}ce a energie}{18}{chapter.3}\protected@file@percent }
\@writefile{lof}{\addvspace {10\p@ }}
\@writefile{lot}{\addvspace {10\p@ }}
\@writefile{toc}{\contentsline {section}{\numberline {3.1}Z\IeC {\'a}kladn\IeC {\'\i } pojmy}{18}{section.3.1}\protected@file@percent }
\@writefile{toc}{\contentsline {section}{\numberline {3.2}Potenci\IeC {\'a}ln\IeC {\'\i } energie}{18}{section.3.2}\protected@file@percent }
\@writefile{toc}{\contentsline {subsection}{\numberline {3.2.1}Potenci\IeC {\'a}ln\IeC {\'\i } energie pru\IeC {\v z}nosti}{18}{subsection.3.2.1}\protected@file@percent }
\@writefile{toc}{\contentsline {section}{\numberline {3.3}Kinetick\IeC {\'a} energie}{19}{section.3.3}\protected@file@percent }
\@writefile{toc}{\contentsline {section}{\numberline {3.4}Z\IeC {\'a}kon zachov\IeC {\'a}n\IeC {\'\i } mechanick\IeC {\'e} energie}{19}{section.3.4}\protected@file@percent }
\@writefile{toc}{\contentsline {section}{\numberline {3.5}R\IeC {\'a}zy t\IeC {\v e}les}{19}{section.3.5}\protected@file@percent }
\@writefile{toc}{\contentsline {subsection}{\numberline {3.5.1}Dokonale pru\IeC {\v z}n\IeC {\'y} r\IeC {\'a}z}{19}{subsection.3.5.1}\protected@file@percent }
\@writefile{toc}{\contentsline {subsection}{\numberline {3.5.2}Dokonale nepru\IeC {\v z}n\IeC {\'y} r\IeC {\'a}z}{19}{subsection.3.5.2}\protected@file@percent }
\@writefile{toc}{\contentsline {subsection}{\numberline {3.5.3}Nedokonale pru\IeC {\v z}n\IeC {\'y} r\IeC {\'a}z}{19}{subsection.3.5.3}\protected@file@percent }
\@writefile{toc}{\contentsline {section}{\numberline {3.6}V\IeC {\'y}kon, p\IeC {\v r}\IeC {\'\i }kon, \IeC {\'u}\IeC {\v c}innost}{20}{section.3.6}\protected@file@percent }
\@writefile{toc}{\contentsline {chapter}{\numberline {4}Mechanika tuh\IeC {\'e}ho t\IeC {\v e}lesa}{21}{chapter.4}\protected@file@percent }
\@writefile{lof}{\addvspace {10\p@ }}
\@writefile{lot}{\addvspace {10\p@ }}
\@writefile{toc}{\contentsline {section}{\numberline {4.1}Z\IeC {\'a}kladn\IeC {\'\i } pojmy}{21}{section.4.1}\protected@file@percent }
\@writefile{toc}{\contentsline {section}{\numberline {4.2}\IeC {\'U}hlov\IeC {\'e} veli\IeC {\v c}iny}{21}{section.4.2}\protected@file@percent }
\@writefile{toc}{\contentsline {subsection}{\numberline {4.2.1}Moment s\IeC {\'\i }ly}{21}{subsection.4.2.1}\protected@file@percent }
\@writefile{toc}{\contentsline {paragraph}{Sm\IeC {\v e}r momentu s\IeC {\'\i }ly}{21}{section*.18}\protected@file@percent }
\@writefile{lof}{\contentsline {figure}{\numberline {4.1}{\ignorespaces Moment s\IeC {\'\i }ly\relax }}{22}{figure.caption.19}\protected@file@percent }
\newlabel{Fig:MTT1}{{4.1}{22}{Moment síly\relax }{figure.caption.19}{}}
\@writefile{toc}{\contentsline {subsection}{\numberline {4.2.2}Momentov\IeC {\'a} v\IeC {\v e}ta}{22}{subsection.4.2.2}\protected@file@percent }
\@writefile{toc}{\contentsline {section}{\numberline {4.3}Skl\IeC {\'a}d\IeC {\'a}n\IeC {\'\i } sil}{22}{section.4.3}\protected@file@percent }
\@writefile{lof}{\contentsline {figure}{\numberline {4.2}{\ignorespaces Rovnob\IeC {\v e}\IeC {\v z}n\IeC {\'e} s\IeC {\'\i }ly na r\IeC {\r u}zn\IeC {\'y}ch vektorov\IeC {\'y}ch p\IeC {\v r}\IeC {\'\i }mk\IeC {\'a}ch\relax }}{22}{figure.caption.20}\protected@file@percent }
\newlabel{Fig:MTT2}{{4.2}{22}{Rovnoběžné síly na různých vektorových přímkách\relax }{figure.caption.20}{}}
\@writefile{toc}{\contentsline {section}{\numberline {4.4}T\IeC {\v e}\IeC {\v z}i\IeC {\v s}t\IeC {\v e}}{23}{section.4.4}\protected@file@percent }
\@writefile{toc}{\contentsline {section}{\numberline {4.5}Rovnov\IeC {\'a}\IeC {\v z}n\IeC {\'e} polohy}{23}{section.4.5}\protected@file@percent }
\@writefile{toc}{\contentsline {section}{\numberline {4.6}Moment setrva\IeC {\v c}nosti}{23}{section.4.6}\protected@file@percent }
\@writefile{toc}{\contentsline {subsection}{\numberline {4.6.1}Steinerova v\IeC {\v e}ta}{23}{subsection.4.6.1}\protected@file@percent }
\@writefile{toc}{\contentsline {chapter}{\numberline {5}Mechanika kapalin a plyn\IeC {\r u}}{24}{chapter.5}\protected@file@percent }
\@writefile{lof}{\addvspace {10\p@ }}
\@writefile{lot}{\addvspace {10\p@ }}
\@writefile{toc}{\contentsline {section}{\numberline {5.1}Z\IeC {\'a}kladn\IeC {\'\i } pojmy}{24}{section.5.1}\protected@file@percent }
\@writefile{toc}{\contentsline {section}{\numberline {5.2}Hydrostatika}{24}{section.5.2}\protected@file@percent }
\@writefile{toc}{\contentsline {subsection}{\numberline {5.2.1}Tlak}{24}{subsection.5.2.1}\protected@file@percent }
\newlabel{hydrostatika tlak}{{5.2.1}{24}{Tlak}{subsection.5.2.1}{}}
\@writefile{toc}{\contentsline {paragraph}{Definice}{24}{section*.21}\protected@file@percent }
\@writefile{lof}{\contentsline {figure}{\numberline {5.1}{\ignorespaces Archim\IeC {\'e}d\IeC {\r u}v z\IeC {\'a}kon\relax }}{25}{figure.caption.22}\protected@file@percent }
\newlabel{Fig:MKP1}{{5.1}{25}{Archimédův zákon\relax }{figure.caption.22}{}}
\@writefile{toc}{\contentsline {section}{\numberline {5.3}Hydrodynamika}{26}{section.5.3}\protected@file@percent }
\@writefile{toc}{\contentsline {subsection}{\numberline {5.3.1}Z\IeC {\'a}kladn\IeC {\'\i } pojmy}{26}{subsection.5.3.1}\protected@file@percent }
\@writefile{toc}{\contentsline {subsection}{\numberline {5.3.2}Rovnice kontinuity}{26}{subsection.5.3.2}\protected@file@percent }
\@writefile{toc}{\contentsline {subsection}{\numberline {5.3.3}Bernoulliho rovnice}{26}{subsection.5.3.3}\protected@file@percent }
\@writefile{lof}{\contentsline {figure}{\numberline {5.2}{\ignorespaces N\IeC {\'a}kres Bernoulliho rovnice\relax }}{26}{figure.caption.23}\protected@file@percent }
\newlabel{Fig:MKP2}{{5.2}{26}{Nákres Bernoulliho rovnice\relax }{figure.caption.23}{}}
\@writefile{toc}{\contentsline {paragraph}{Hydrodynamick\IeC {\'y} paradox}{27}{section*.24}\protected@file@percent }
\@writefile{toc}{\contentsline {subsection}{\numberline {5.3.4}Obt\IeC {\'e}k\IeC {\'a}n\IeC {\'\i } t\IeC {\v e}les}{27}{subsection.5.3.4}\protected@file@percent }
\newlabel{eq:MKP_1}{{5.1}{27}{Obtékání těles}{equation.5.3.1}{}}
\@writefile{toc}{\contentsline {chapter}{\numberline {6}Gravita\IeC {\v c}n\IeC {\'\i } pole}{28}{chapter.6}\protected@file@percent }
\@writefile{lof}{\addvspace {10\p@ }}
\@writefile{lot}{\addvspace {10\p@ }}
\newlabel{grav}{{6}{28}{Gravitační pole}{chapter.6}{}}
\@writefile{toc}{\contentsline {section}{\numberline {6.1}Z\IeC {\'a}kladn\IeC {\'\i } pojmy}{28}{section.6.1}\protected@file@percent }
\@writefile{lof}{\contentsline {figure}{\numberline {6.1}{\ignorespaces T\IeC {\'\i }hov\IeC {\'a} s\IeC {\'\i }la\relax }}{28}{figure.caption.25}\protected@file@percent }
\newlabel{Fig:GP1}{{6.1}{28}{Tíhová síla\relax }{figure.caption.25}{}}
\@writefile{toc}{\contentsline {section}{\numberline {6.2}Newton\IeC {\r u}v gravita\IeC {\v c}n\IeC {\'\i } z\IeC {\'a}kon}{29}{section.6.2}\protected@file@percent }
\@writefile{toc}{\contentsline {subsection}{\numberline {6.2.1}Intenzita gravita\IeC {\v c}n\IeC {\'\i }ho pole}{29}{subsection.6.2.1}\protected@file@percent }
\@writefile{toc}{\contentsline {subsection}{\numberline {6.2.2}Zrychlen\IeC {\'\i } gravita\IeC {\v c}n\IeC {\'\i }ho pole}{29}{subsection.6.2.2}\protected@file@percent }
\@writefile{toc}{\contentsline {subsection}{\numberline {6.2.3}T\IeC {\'\i }hov\IeC {\'e} zrychlen\IeC {\'\i }}{29}{subsection.6.2.3}\protected@file@percent }
\@writefile{toc}{\contentsline {section}{\numberline {6.3}Pohyby v t\IeC {\'\i }hov\IeC {\'e}m poli}{29}{section.6.3}\protected@file@percent }
\@writefile{toc}{\contentsline {section}{\numberline {6.4}Pohyby v radi\IeC {\'a}ln\IeC {\'\i }m poli}{29}{section.6.4}\protected@file@percent }
\@writefile{toc}{\contentsline {subsection}{\numberline {6.4.1}Kosmick\IeC {\'e} rychlosti}{30}{subsection.6.4.1}\protected@file@percent }
\@writefile{toc}{\contentsline {subsection}{\numberline {6.4.2}Keplerovy z\IeC {\'a}kony}{30}{subsection.6.4.2}\protected@file@percent }
\@writefile{toc}{\contentsline {chapter}{\numberline {7}Kmit\IeC {\'a}n\IeC {\'\i }}{32}{chapter.7}\protected@file@percent }
\@writefile{lof}{\addvspace {10\p@ }}
\@writefile{lot}{\addvspace {10\p@ }}
\@writefile{toc}{\contentsline {section}{\numberline {7.1}Z\IeC {\'a}kladn\IeC {\'\i } pojmy}{32}{section.7.1}\protected@file@percent }
\@writefile{toc}{\contentsline {section}{\numberline {7.2}Kinematika kmitav\IeC {\'e}ho pohybu}{32}{section.7.2}\protected@file@percent }
\@writefile{toc}{\contentsline {subsection}{\numberline {7.2.1}Pojmy}{32}{subsection.7.2.1}\protected@file@percent }
\@writefile{lof}{\contentsline {figure}{\numberline {7.1}{\ignorespaces F\IeC {\'a}zorov\IeC {\'y} diagram a harmonick\IeC {\'e} kmit\IeC {\'a}n\IeC {\'\i }\relax }}{33}{figure.caption.26}\protected@file@percent }
\newlabel{Fig:KM1}{{7.1}{33}{Fázorový diagram a harmonické kmitání\relax }{figure.caption.26}{}}
\@writefile{toc}{\contentsline {subsection}{\numberline {7.2.2}Rovnice harmonick\IeC {\'e}ho kmit\IeC {\'a}n\IeC {\'\i }}{33}{subsection.7.2.2}\protected@file@percent }
\@writefile{toc}{\contentsline {subsection}{\numberline {7.2.3}Rychlost a zrychlen\IeC {\'\i } harmonick\IeC {\'e}ho kmit\IeC {\'a}n\IeC {\'\i }}{33}{subsection.7.2.3}\protected@file@percent }
\@writefile{toc}{\contentsline {section}{\numberline {7.3}Slo\IeC {\v z}en\IeC {\'e} kmit\IeC {\'a}n\IeC {\'\i }}{34}{section.7.3}\protected@file@percent }
\@writefile{toc}{\contentsline {subsection}{\numberline {7.3.1}P\IeC {\v r}\IeC {\'\i }pady}{34}{subsection.7.3.1}\protected@file@percent }
\@writefile{toc}{\contentsline {section}{\numberline {7.4}Dynamika kmitav\IeC {\'e}ho pohybu}{34}{section.7.4}\protected@file@percent }
\@writefile{toc}{\contentsline {subsection}{\numberline {7.4.1}T\IeC {\v e}leso na pru\IeC {\v z}in\IeC {\v e}}{34}{subsection.7.4.1}\protected@file@percent }
\@writefile{toc}{\contentsline {subsection}{\numberline {7.4.2}Matematick\IeC {\'e} kyvadlo}{35}{subsection.7.4.2}\protected@file@percent }
\@writefile{lof}{\contentsline {figure}{\numberline {7.2}{\ignorespaces Matematick\IeC {\'e} kyvadlo\relax }}{35}{figure.caption.27}\protected@file@percent }
\newlabel{Fig:KM2}{{7.2}{35}{Matematické kyvadlo\relax }{figure.caption.27}{}}
\@writefile{toc}{\contentsline {section}{\numberline {7.5}Energie kmit\IeC {\'a}n\IeC {\'\i }}{36}{section.7.5}\protected@file@percent }
\@writefile{lof}{\contentsline {figure}{\numberline {7.3}{\ignorespaces Energie kmit\IeC {\'a}n\IeC {\'\i }\relax }}{36}{figure.caption.28}\protected@file@percent }
\newlabel{Fig:KM3}{{7.3}{36}{Energie kmitání\relax }{figure.caption.28}{}}
\@writefile{toc}{\contentsline {section}{\numberline {7.6}Typy kmit\IeC {\'a}n\IeC {\'\i }}{37}{section.7.6}\protected@file@percent }
\@writefile{toc}{\contentsline {chapter}{\numberline {8}Vln\IeC {\v e}n\IeC {\'\i }}{38}{chapter.8}\protected@file@percent }
\@writefile{lof}{\addvspace {10\p@ }}
\@writefile{lot}{\addvspace {10\p@ }}
\newlabel{vlneni}{{8}{38}{Vlnění}{chapter.8}{}}
\@writefile{toc}{\contentsline {section}{\numberline {8.1}Z\IeC {\'a}kladn\IeC {\'\i } pojmy}{38}{section.8.1}\protected@file@percent }
\@writefile{lof}{\contentsline {figure}{\numberline {8.1}{\ignorespaces P\IeC {\v r}\IeC {\'\i }\IeC {\v c}n\IeC {\'e} vln\IeC {\v e}n\IeC {\'\i }\relax }}{38}{figure.caption.29}\protected@file@percent }
\newlabel{Fig:V1}{{8.1}{38}{Příčné vlnění\relax }{figure.caption.29}{}}
\@writefile{lof}{\contentsline {figure}{\numberline {8.2}{\ignorespaces Pod\IeC {\'e}ln\IeC {\'e} vln\IeC {\v e}n\IeC {\'\i }\relax }}{39}{figure.caption.30}\protected@file@percent }
\newlabel{Fig:V2}{{8.2}{39}{Podélné vlnění\relax }{figure.caption.30}{}}
\@writefile{toc}{\contentsline {section}{\numberline {8.2}Rovnice vlny}{39}{section.8.2}\protected@file@percent }
\@writefile{toc}{\contentsline {section}{\numberline {8.3}Interference vln\IeC {\v e}n\IeC {\'\i }}{39}{section.8.3}\protected@file@percent }
\@writefile{toc}{\contentsline {paragraph}{Definice}{39}{section*.31}\protected@file@percent }
\@writefile{toc}{\contentsline {section}{\numberline {8.4}Odraz vln\IeC {\v e}n\IeC {\'\i }}{40}{section.8.4}\protected@file@percent }
\newlabel{odraz}{{8.4}{40}{Odraz vlnění}{section.8.4}{}}
\@writefile{toc}{\contentsline {subsection}{\numberline {8.4.1}Odraz vln\IeC {\v e}n\IeC {\'\i } od pevn\IeC {\'e}ho konce}{40}{subsection.8.4.1}\protected@file@percent }
\@writefile{lof}{\contentsline {figure}{\numberline {8.3}{\ignorespaces Odraz od pevn\IeC {\'e}ho konce\relax }}{40}{figure.caption.32}\protected@file@percent }
\newlabel{Fig:V3}{{8.3}{40}{Odraz od pevného konce\relax }{figure.caption.32}{}}
\@writefile{toc}{\contentsline {subsection}{\numberline {8.4.2}Odraz vln\IeC {\v e}n\IeC {\'\i } od voln\IeC {\'e}ho konce}{40}{subsection.8.4.2}\protected@file@percent }
\@writefile{lof}{\contentsline {figure}{\numberline {8.4}{\ignorespaces Odraz od voln\IeC {\'e}ho konce\relax }}{40}{figure.caption.33}\protected@file@percent }
\newlabel{Fig:V4}{{8.4}{40}{Odraz od volného konce\relax }{figure.caption.33}{}}
\@writefile{toc}{\contentsline {section}{\numberline {8.5}Stojat\IeC {\'e} vln\IeC {\v e}n\IeC {\'\i }}{41}{section.8.5}\protected@file@percent }
\@writefile{lof}{\contentsline {figure}{\numberline {8.5}{\ignorespaces Stojat\IeC {\'e} vln\IeC {\v e}n\IeC {\'\i }\relax }}{41}{figure.caption.34}\protected@file@percent }
\newlabel{Fig:V5}{{8.5}{41}{Stojaté vlnění\relax }{figure.caption.34}{}}
\@writefile{toc}{\contentsline {subsection}{\numberline {8.5.1}Chv\IeC {\v e}n\IeC {\'\i }}{41}{subsection.8.5.1}\protected@file@percent }
\@writefile{toc}{\contentsline {section}{\numberline {8.6}Huygens\IeC {\r u}v princip}{42}{section.8.6}\protected@file@percent }
\@writefile{lof}{\contentsline {figure}{\numberline {8.6}{\ignorespaces Huygens\IeC {\r u}v princip\relax }}{42}{figure.caption.35}\protected@file@percent }
\newlabel{Fig:V6}{{8.6}{42}{Huygensův princip\relax }{figure.caption.35}{}}
\@writefile{lof}{\contentsline {figure}{\numberline {8.7}{\ignorespaces Huygens\IeC {\r u}v princip s vlnoplochou jako p\IeC {\v r}\IeC {\'\i }mkou\relax }}{42}{figure.caption.36}\protected@file@percent }
\newlabel{Fig:V7}{{8.7}{42}{Huygensův princip s vlnoplochou jako přímkou\relax }{figure.caption.36}{}}
\@writefile{toc}{\contentsline {section}{\numberline {8.7}Odraz, lom a ohyb vln\IeC {\v e}n\IeC {\'\i }}{42}{section.8.7}\protected@file@percent }
\@writefile{toc}{\contentsline {subsection}{\numberline {8.7.1}Odraz}{42}{subsection.8.7.1}\protected@file@percent }
\newlabel{odraz}{{8.7.1}{42}{Odraz}{subsection.8.7.1}{}}
\@writefile{lof}{\contentsline {figure}{\numberline {8.8}{\ignorespaces Odraz vln\IeC {\v e}n\IeC {\'\i } odvozen\IeC {\'y} z Huygensova principu\relax }}{43}{figure.caption.37}\protected@file@percent }
\newlabel{Fig:V8}{{8.8}{43}{Odraz vlnění odvozený z Huygensova principu\relax }{figure.caption.37}{}}
\@writefile{toc}{\contentsline {subsection}{\numberline {8.7.2}Lom}{43}{subsection.8.7.2}\protected@file@percent }
\newlabel{lom}{{8.7.2}{43}{Lom}{subsection.8.7.2}{}}
\@writefile{lof}{\contentsline {figure}{\numberline {8.9}{\ignorespaces Lom vln\IeC {\v e}n\IeC {\'\i } odvozen\IeC {\'y} z Huygensova principu\relax }}{43}{figure.caption.38}\protected@file@percent }
\newlabel{Fig:V9}{{8.9}{43}{Lom vlnění odvozený z Huygensova principu\relax }{figure.caption.38}{}}
\newlabel{eq:V_1}{{8.1}{44}{Lom}{equation.8.7.1}{}}
\@writefile{toc}{\contentsline {subsection}{\numberline {8.7.3}Ohyb}{44}{subsection.8.7.3}\protected@file@percent }
\@writefile{lof}{\contentsline {figure}{\numberline {8.10}{\ignorespaces Ohyb vln\IeC {\v e}n\IeC {\'\i }\relax }}{44}{figure.caption.39}\protected@file@percent }
\newlabel{Fig:V10}{{8.10}{44}{Ohyb vlnění\relax }{figure.caption.39}{}}
\@writefile{toc}{\contentsline {section}{\numberline {8.8}Polarizace}{44}{section.8.8}\protected@file@percent }
\@writefile{lof}{\contentsline {figure}{\numberline {8.11}{\ignorespaces Polarizace vln\IeC {\v e}n\IeC {\'\i }\relax }}{44}{figure.caption.40}\protected@file@percent }
\newlabel{Fig:V11}{{8.11}{44}{Polarizace vlnění\relax }{figure.caption.40}{}}
\@writefile{toc}{\contentsline {section}{\numberline {8.9}Zvuk}{45}{section.8.9}\protected@file@percent }
\@writefile{toc}{\contentsline {chapter}{\numberline {9}Zobrazen\IeC {\'\i } odrazem}{46}{chapter.9}\protected@file@percent }
\@writefile{lof}{\addvspace {10\p@ }}
\@writefile{lot}{\addvspace {10\p@ }}
\@writefile{toc}{\contentsline {section}{\numberline {9.1}Z\IeC {\'a}kladn\IeC {\'\i } informace}{46}{section.9.1}\protected@file@percent }
\@writefile{lof}{\contentsline {figure}{\numberline {9.1}{\ignorespaces Znam\IeC {\'e}nkov\IeC {\'a} konvence\relax }}{47}{figure.caption.41}\protected@file@percent }
\newlabel{Fig:ZO1}{{9.1}{47}{Znaménková konvence\relax }{figure.caption.41}{}}
\@writefile{toc}{\contentsline {section}{\numberline {9.2}Rovinn\IeC {\'e} zrcadlo}{47}{section.9.2}\protected@file@percent }
\@writefile{lof}{\contentsline {figure}{\numberline {9.2}{\ignorespaces Rovinn\IeC {\'e} zrcadlo\relax }}{47}{figure.caption.42}\protected@file@percent }
\newlabel{Fig:ZO2}{{9.2}{47}{Rovinné zrcadlo\relax }{figure.caption.42}{}}
\@writefile{toc}{\contentsline {section}{\numberline {9.3}Kulov\IeC {\'e} zrcadlo}{47}{section.9.3}\protected@file@percent }
\@writefile{toc}{\contentsline {subsection}{\numberline {9.3.1}Zobrazovac\IeC {\'\i } rovnice kulov\IeC {\'e}ho zrcadla}{48}{subsection.9.3.1}\protected@file@percent }
\@writefile{lof}{\contentsline {figure}{\numberline {9.3}{\ignorespaces Odvozen\IeC {\'\i } rovnice pro kulov\IeC {\'e} zrcadlo\relax }}{48}{figure.caption.43}\protected@file@percent }
\newlabel{Fig:ZO3}{{9.3}{48}{Odvození rovnice pro kulové zrcadlo\relax }{figure.caption.43}{}}
\@writefile{toc}{\contentsline {subsection}{\numberline {9.3.2}Vypukl\IeC {\'e} zrcadlo}{49}{subsection.9.3.2}\protected@file@percent }
\@writefile{toc}{\contentsline {subsection}{\numberline {9.3.3}Dut\IeC {\'e} zrcadlo}{49}{subsection.9.3.3}\protected@file@percent }
\@writefile{lof}{\contentsline {figure}{\numberline {9.4}{\ignorespaces Zobrazen\IeC {\'\i } kulov\IeC {\'y}m zrcadlem\relax }}{49}{figure.caption.44}\protected@file@percent }
\newlabel{Fig:ZO4}{{9.4}{49}{Zobrazení kulovým zrcadlem\relax }{figure.caption.44}{}}
\@writefile{toc}{\contentsline {subsection}{\numberline {9.3.4}P\IeC {\v r}\IeC {\'\i }\IeC {\v c}n\IeC {\'e} zv\IeC {\v e}t\IeC {\v s}en\IeC {\'\i }}{49}{subsection.9.3.4}\protected@file@percent }
\@writefile{toc}{\contentsline {section}{\numberline {9.4}Vyu\IeC {\v z}it\IeC {\'\i } zobrazen\IeC {\'\i } odrazem}{50}{section.9.4}\protected@file@percent }
\@writefile{toc}{\contentsline {chapter}{\numberline {10}Zobrazov\IeC {\'a}n\IeC {\'\i } lomem}{51}{chapter.10}\protected@file@percent }
\@writefile{lof}{\addvspace {10\p@ }}
\@writefile{lot}{\addvspace {10\p@ }}
\@writefile{toc}{\contentsline {section}{\numberline {10.1}Z\IeC {\'a}kladn\IeC {\'\i } informace}{51}{section.10.1}\protected@file@percent }
\@writefile{lof}{\contentsline {figure}{\numberline {10.1}{\ignorespaces Druhy \IeC {\v c}o\IeC {\v c}ek\relax }}{51}{figure.caption.45}\protected@file@percent }
\newlabel{Fig:ZL1}{{10.1}{51}{Druhy čoček\relax }{figure.caption.45}{}}
\@writefile{toc}{\contentsline {section}{\numberline {10.2}\IeC {\'U}pln\IeC {\'y} odraz}{52}{section.10.2}\protected@file@percent }
\@writefile{toc}{\contentsline {section}{\numberline {10.3}Ohniskov\IeC {\'a} vzd\IeC {\'a}lenost}{52}{section.10.3}\protected@file@percent }
\@writefile{lof}{\contentsline {figure}{\numberline {10.2}{\ignorespaces Popis \IeC {\v c}o\IeC {\v c}ky\relax }}{52}{figure.caption.46}\protected@file@percent }
\newlabel{Fig:ZL2}{{10.2}{52}{Popis čočky\relax }{figure.caption.46}{}}
\newlabel{noteZL1}{{1}{52}{}{Hfootnote.25}{}}
\@writefile{toc}{\contentsline {section}{\numberline {10.4}Zobrazovac\IeC {\'\i } rovnice \IeC {\v c}o\IeC {\v c}ky}{53}{section.10.4}\protected@file@percent }
\@writefile{toc}{\contentsline {section}{\numberline {10.5}V\IeC {\'y}zna\IeC {\v c}n\IeC {\'e} paprsky}{53}{section.10.5}\protected@file@percent }
\@writefile{lof}{\contentsline {figure}{\numberline {10.3}{\ignorespaces Zobrazen\IeC {\'\i } tenkou \IeC {\v c}o\IeC {\v c}kou\relax }}{53}{figure.caption.47}\protected@file@percent }
\newlabel{Fig:ZL3}{{10.3}{53}{Zobrazení tenkou čočkou\relax }{figure.caption.47}{}}
\@writefile{toc}{\contentsline {paragraph}{Pozn\IeC {\'a}mka:}{54}{section*.48}\protected@file@percent }
\@writefile{toc}{\contentsline {section}{\numberline {10.6}P\IeC {\v r}\IeC {\'\i }\IeC {\v c}n\IeC {\'e} zv\IeC {\v e}t\IeC {\v s}en\IeC {\'\i }}{54}{section.10.6}\protected@file@percent }
\@writefile{toc}{\contentsline {section}{\numberline {10.7}Zorn\IeC {\'y} \IeC {\'u}hel a \IeC {\'u}hlov\IeC {\'e} zv\IeC {\v e}t\IeC {\v s}en\IeC {\'\i }}{54}{section.10.7}\protected@file@percent }
\@writefile{toc}{\contentsline {subsection}{\numberline {10.7.1}Zorn\IeC {\'y} \IeC {\'u}hel}{54}{subsection.10.7.1}\protected@file@percent }
\@writefile{toc}{\contentsline {subsection}{\numberline {10.7.2}\IeC {\'U}hlov\IeC {\'e} zv\IeC {\v e}t\IeC {\v s}en\IeC {\'\i }}{54}{subsection.10.7.2}\protected@file@percent }
\@writefile{toc}{\contentsline {section}{\numberline {10.8}Optick\IeC {\'e} p\IeC {\v r}\IeC {\'\i }stroje}{54}{section.10.8}\protected@file@percent }
\@writefile{toc}{\contentsline {subsection}{\numberline {10.8.1}Lupa}{54}{subsection.10.8.1}\protected@file@percent }
\@writefile{lof}{\contentsline {figure}{\numberline {10.4}{\ignorespaces \IeC {\'U}hlov\IeC {\'e} zv\IeC {\v e}t\IeC {\v s}en\IeC {\'\i } lupy\relax }}{55}{figure.caption.49}\protected@file@percent }
\newlabel{Fig:ZL4}{{10.4}{55}{Úhlové zvětšení lupy\relax }{figure.caption.49}{}}
\@writefile{toc}{\contentsline {subsection}{\numberline {10.8.2}Mikroskop}{55}{subsection.10.8.2}\protected@file@percent }
\@writefile{lof}{\contentsline {figure}{\numberline {10.5}{\ignorespaces Princip \IeC {\v c}innosti mikroskopu\relax }}{56}{figure.caption.50}\protected@file@percent }
\newlabel{Fig:ZL5}{{10.5}{56}{Princip činnosti mikroskopu\relax }{figure.caption.50}{}}
\@writefile{toc}{\contentsline {subsection}{\numberline {10.8.3}Dalekohled}{56}{subsection.10.8.3}\protected@file@percent }
\@writefile{toc}{\contentsline {subsubsection}{Kepler\IeC {\r u}v dalekohled}{57}{section*.51}\protected@file@percent }
\@writefile{lof}{\contentsline {figure}{\numberline {10.6}{\ignorespaces Kepler\IeC {\r u}v (hv\IeC {\v e}zd\IeC {\'a}\IeC {\v r}sk\IeC {\'y}) dalekohled\relax }}{57}{figure.caption.52}\protected@file@percent }
\newlabel{Fig:ZL6}{{10.6}{57}{Keplerův (hvězdářský) dalekohled\relax }{figure.caption.52}{}}
\@writefile{toc}{\contentsline {subsection}{\numberline {10.8.4}Galile\IeC {\r u}v dalekohled}{57}{subsection.10.8.4}\protected@file@percent }
\@writefile{lof}{\contentsline {figure}{\numberline {10.7}{\ignorespaces Galile\IeC {\r u}v dalekohled\relax }}{58}{figure.caption.53}\protected@file@percent }
\newlabel{Fig:ZL7}{{10.7}{58}{Galileův dalekohled\relax }{figure.caption.53}{}}
\@writefile{toc}{\contentsline {subsection}{\numberline {10.8.5}Newton\IeC {\r u}v dalekohled}{58}{subsection.10.8.5}\protected@file@percent }
\@writefile{lof}{\contentsline {figure}{\numberline {10.8}{\ignorespaces Newton\IeC {\r u}v dalekohled\relax }}{58}{figure.caption.54}\protected@file@percent }
\newlabel{Fig:ZL8}{{10.8}{58}{Newtonův dalekohled\relax }{figure.caption.54}{}}
\@writefile{toc}{\contentsline {section}{\numberline {10.9}Oko}{58}{section.10.9}\protected@file@percent }
\@writefile{toc}{\contentsline {subsection}{\numberline {10.9.1}Vady oka}{59}{subsection.10.9.1}\protected@file@percent }
\@writefile{lof}{\contentsline {figure}{\numberline {10.9}{\ignorespaces Kr\IeC {\'a}tkozrak\IeC {\'e} oko\relax }}{59}{figure.caption.55}\protected@file@percent }
\newlabel{Fig:ZL9}{{10.9}{59}{Krátkozraké oko\relax }{figure.caption.55}{}}
\@writefile{lof}{\contentsline {figure}{\numberline {10.10}{\ignorespaces Dalekozrak\IeC {\'e} oko\relax }}{59}{figure.caption.56}\protected@file@percent }
\newlabel{Fig:ZL10}{{10.10}{59}{Dalekozraké oko\relax }{figure.caption.56}{}}
\@writefile{toc}{\contentsline {chapter}{\numberline {11}Vlnov\IeC {\'e} vlastnosti sv\IeC {\v e}tla}{60}{chapter.11}\protected@file@percent }
\@writefile{lof}{\addvspace {10\p@ }}
\@writefile{lot}{\addvspace {10\p@ }}
\@writefile{toc}{\contentsline {section}{\numberline {11.1}Z\IeC {\'a}kladn\IeC {\'\i } informace}{60}{section.11.1}\protected@file@percent }
\@writefile{toc}{\contentsline {section}{\numberline {11.2}Disperze sv\IeC {\v e}tla}{60}{section.11.2}\protected@file@percent }
\@writefile{lof}{\contentsline {figure}{\numberline {11.1}{\ignorespaces Disperze sv\IeC {\v e}tla\relax }}{61}{figure.caption.57}\protected@file@percent }
\newlabel{Fig:VVS1}{{11.1}{61}{Disperze světla\relax }{figure.caption.57}{}}
\@writefile{toc}{\contentsline {section}{\numberline {11.3}Interference}{61}{section.11.3}\protected@file@percent }
\@writefile{toc}{\contentsline {subsection}{\numberline {11.3.1}Koherence}{61}{subsection.11.3.1}\protected@file@percent }
\@writefile{toc}{\contentsline {subsection}{\numberline {11.3.2}Interference na tenk\IeC {\'e} vrstv\IeC {\v e}}{61}{subsection.11.3.2}\protected@file@percent }
\@writefile{toc}{\contentsline {paragraph}{Ot\IeC {\'a}\IeC {\v c}en\IeC {\'\i } f\IeC {\'a}ze na rozhran\IeC {\'\i }}{61}{section*.58}\protected@file@percent }
\@writefile{lof}{\contentsline {figure}{\numberline {11.2}{\ignorespaces Interference na tenk\IeC {\'e} vrstv\IeC {\v e}\relax }}{62}{figure.caption.59}\protected@file@percent }
\newlabel{Fig:VVS2}{{11.2}{62}{Interference na tenké vrstvě\relax }{figure.caption.59}{}}
\@writefile{toc}{\contentsline {subsection}{\numberline {11.3.3}Newtonova skla}{63}{subsection.11.3.3}\protected@file@percent }
\@writefile{lof}{\contentsline {figure}{\numberline {11.3}{\ignorespaces Newtonova skla\relax }}{63}{figure.caption.60}\protected@file@percent }
\newlabel{Fig:VVS3}{{11.3}{63}{Newtonova skla\relax }{figure.caption.60}{}}
\@writefile{toc}{\contentsline {section}{\numberline {11.4}Ohyb sv\IeC {\v e}tla na optick\IeC {\'e} m\IeC {\v r}\IeC {\'\i }\IeC {\v z}ce}{63}{section.11.4}\protected@file@percent }
\newlabel{ohyb svetla na opticke mrizce}{{11.4}{63}{Ohyb světla na optické mřížce}{section.11.4}{}}
\@writefile{lof}{\contentsline {figure}{\numberline {11.4}{\ignorespaces Ohyb sv\IeC {\v e}tla na optick\IeC {\'e} m\IeC {\v r}\IeC {\'\i }\IeC {\v z}ce\relax }}{64}{figure.caption.61}\protected@file@percent }
\newlabel{Fig:VVS4}{{11.4}{64}{Ohyb světla na optické mřížce\relax }{figure.caption.61}{}}
\@writefile{toc}{\contentsline {paragraph}{Nult\IeC {\'e} maximum}{64}{section*.62}\protected@file@percent }
\@writefile{lof}{\contentsline {figure}{\numberline {11.5}{\ignorespaces Interferen\IeC {\v c}n\IeC {\'\i } maxima na optick\IeC {\'e} m\IeC {\v r}\IeC {\'\i }\IeC {\v z}ce\relax }}{64}{figure.caption.63}\protected@file@percent }
\newlabel{Fig:VVS5}{{11.5}{64}{Interferenční maxima na optické mřížce\relax }{figure.caption.63}{}}
\@writefile{toc}{\contentsline {section}{\numberline {11.5}Polarizace sv\IeC {\v e}tla}{64}{section.11.5}\protected@file@percent }
\@writefile{toc}{\contentsline {section}{\numberline {11.6}Fotometrie}{65}{section.11.6}\protected@file@percent }
\@writefile{toc}{\contentsline {chapter}{\numberline {12}Tepeln\IeC {\'e} jevy v l\IeC {\'a}tk\IeC {\'a}ch}{66}{chapter.12}\protected@file@percent }
\@writefile{lof}{\addvspace {10\p@ }}
\@writefile{lot}{\addvspace {10\p@ }}
\@writefile{toc}{\contentsline {section}{\numberline {12.1}Z\IeC {\'a}kladn\IeC {\'\i } informace}{66}{section.12.1}\protected@file@percent }
\@writefile{lof}{\contentsline {figure}{\numberline {12.1}{\ignorespaces Graf z\IeC {\'a}vislosti s\IeC {\'\i }ly na vzd\IeC {\'a}lenosti\relax }}{66}{figure.caption.64}\protected@file@percent }
\newlabel{Fig:TJL1}{{12.1}{66}{Graf závislosti síly na vzdálenosti\relax }{figure.caption.64}{}}
\@writefile{toc}{\contentsline {section}{\numberline {12.2}Teplota a jej\IeC {\'\i } m\IeC {\v e}\IeC {\v r}en\IeC {\'\i }}{67}{section.12.2}\protected@file@percent }
\@writefile{toc}{\contentsline {section}{\numberline {12.3}Vnit\IeC {\v r}n\IeC {\'\i } energie}{68}{section.12.3}\protected@file@percent }
\@writefile{toc}{\contentsline {section}{\numberline {12.4}Teplo}{68}{section.12.4}\protected@file@percent }
\@writefile{toc}{\contentsline {subsection}{\numberline {12.4.1}Prvn\IeC {\'\i } termodynamick\IeC {\'y} z\IeC {\'a}kon}{68}{subsection.12.4.1}\protected@file@percent }
\@writefile{toc}{\contentsline {section}{\numberline {12.5}Tepeln\IeC {\'a} kapacita}{68}{section.12.5}\protected@file@percent }
\@writefile{toc}{\contentsline {subsection}{\numberline {12.5.1}Tepeln\IeC {\'a} kapacita t\IeC {\v e}lesa}{68}{subsection.12.5.1}\protected@file@percent }
\@writefile{toc}{\contentsline {subsection}{\numberline {12.5.2}M\IeC {\v e}rn\IeC {\'a} tepeln\IeC {\'a} kapacita}{68}{subsection.12.5.2}\protected@file@percent }
\@writefile{toc}{\contentsline {subsection}{\numberline {12.5.3}Kalorimetrick\IeC {\'a} rovnice}{69}{subsection.12.5.3}\protected@file@percent }
\@writefile{toc}{\contentsline {chapter}{\numberline {13}Zm\IeC {\v e}ny skupenstv\IeC {\'\i } l\IeC {\'a}tek}{70}{chapter.13}\protected@file@percent }
\@writefile{lof}{\addvspace {10\p@ }}
\@writefile{lot}{\addvspace {10\p@ }}
\@writefile{toc}{\contentsline {section}{\numberline {13.1}F\IeC {\'a}zov\IeC {\'y} diagram}{70}{section.13.1}\protected@file@percent }
\@writefile{lof}{\contentsline {figure}{\numberline {13.1}{\ignorespaces F\IeC {\'a}zov\IeC {\'y} diagram\relax }}{70}{figure.caption.65}\protected@file@percent }
\newlabel{Fig:ZSL1}{{13.1}{70}{Fázový diagram\relax }{figure.caption.65}{}}
\@writefile{lof}{\contentsline {figure}{\numberline {13.2}{\ignorespaces Zm\IeC {\v e}ny skupenstv\IeC {\'\i }\relax }}{71}{figure.caption.66}\protected@file@percent }
\newlabel{Fig:ZSL2}{{13.2}{71}{Změny skupenství\relax }{figure.caption.66}{}}
\@writefile{toc}{\contentsline {section}{\numberline {13.2}T\IeC {\'a}n\IeC {\'\i } a tuhnut\IeC {\'\i }}{71}{section.13.2}\protected@file@percent }
\@writefile{toc}{\contentsline {section}{\numberline {13.3}Sublimace a desublimace}{72}{section.13.3}\protected@file@percent }
\@writefile{toc}{\contentsline {section}{\numberline {13.4}Vypa\IeC {\v r}ov\IeC {\'a}n\IeC {\'\i } a kondenzace}{72}{section.13.4}\protected@file@percent }
\@writefile{toc}{\contentsline {paragraph}{(M\IeC {\v e}rn\IeC {\'e}) skupensk\IeC {\'e} teplo varu}{72}{section*.67}\protected@file@percent }
\@writefile{toc}{\contentsline {section}{\numberline {13.5}Vlhkost vzduchu}{72}{section.13.5}\protected@file@percent }
\@writefile{toc}{\contentsline {subsection}{\numberline {13.5.1}Absolutn\IeC {\'\i } vlhkost vzduchu}{72}{subsection.13.5.1}\protected@file@percent }
\@writefile{toc}{\contentsline {subsection}{\numberline {13.5.2}Relativn\IeC {\'\i } vlhkost vzduchu}{73}{subsection.13.5.2}\protected@file@percent }
\@writefile{toc}{\contentsline {subsection}{\numberline {13.5.3}Dal\IeC {\v s}\IeC {\'\i } informace}{73}{subsection.13.5.3}\protected@file@percent }
\@writefile{toc}{\contentsline {subsubsection}{Rosn\IeC {\'y} bod}{73}{section*.68}\protected@file@percent }
\@writefile{toc}{\contentsline {subsubsection}{Vlhkom\IeC {\v e}ry}{73}{section*.69}\protected@file@percent }
\@writefile{toc}{\contentsline {chapter}{\numberline {14}Struktura a vlastnosti plyn\IeC {\r u}}{74}{chapter.14}\protected@file@percent }
\@writefile{lof}{\addvspace {10\p@ }}
\@writefile{lot}{\addvspace {10\p@ }}
\@writefile{toc}{\contentsline {section}{\numberline {14.1}Z\IeC {\'a}kladn\IeC {\'\i } informace}{74}{section.14.1}\protected@file@percent }
\@writefile{toc}{\contentsline {section}{\numberline {14.2}Stavov\IeC {\'a} rovnice ide\IeC {\'a}ln\IeC {\'\i }ho plynu}{74}{section.14.2}\protected@file@percent }
\@writefile{toc}{\contentsline {subsection}{\numberline {14.2.1}St\IeC {\v r}edn\IeC {\'\i } kvadratick\IeC {\'a} rychlost}{74}{subsection.14.2.1}\protected@file@percent }
\@writefile{toc}{\contentsline {subsubsection}{Z\IeC {\'a}vislost st\IeC {\v r}edn\IeC {\'\i } kvadratick\IeC {\'e} rychlosti na teplot\IeC {\v e}}{75}{section*.70}\protected@file@percent }
\@writefile{toc}{\contentsline {subsection}{\numberline {14.2.2}Stavov\IeC {\'a} rovnice ide\IeC {\'a}ln\IeC {\'\i }ho plynu}{75}{subsection.14.2.2}\protected@file@percent }
\@writefile{toc}{\contentsline {section}{\numberline {14.3}D\IeC {\v e}je v plynech}{76}{section.14.3}\protected@file@percent }
\@writefile{toc}{\contentsline {subsection}{\numberline {14.3.1}Izotermick\IeC {\'y} d\IeC {\v e}j}{76}{subsection.14.3.1}\protected@file@percent }
\newlabel{Fig:SVP1}{{\caption@xref {Fig:SVP1}{ on input line 2201}}{76}{Izotermický děj}{figure.caption.71}{}}
\newlabel{sub@Fig:SVP1}{{}{76}{Izotermický děj}{figure.caption.71}{}}
\newlabel{Fig:SVP2}{{\caption@xref {Fig:SVP2}{ on input line 2222}}{76}{Izotermický děj}{figure.caption.71}{}}
\newlabel{sub@Fig:SVP2}{{a}{76}{Izotermický děj}{figure.caption.71}{}}
\newlabel{Fig:SVP3}{{\caption@xref {Fig:SVP3}{ on input line 2243}}{76}{Izotermický děj}{figure.caption.71}{}}
\newlabel{sub@Fig:SVP3}{{b}{76}{Izotermický děj}{figure.caption.71}{}}
\@writefile{lof}{\contentsline {figure}{\numberline {14.1}{\ignorespaces Izotermick\IeC {\'y} d\IeC {\v e}j\relax }}{76}{figure.caption.71}\protected@file@percent }
\@writefile{toc}{\contentsline {subsection}{\numberline {14.3.2}Izochorick\IeC {\'y} d\IeC {\v e}j}{76}{subsection.14.3.2}\protected@file@percent }
\newlabel{Fig:SVP4}{{\caption@xref {Fig:SVP4}{ on input line 2283}}{77}{Izochorický děj}{figure.caption.72}{}}
\newlabel{sub@Fig:SVP4}{{}{77}{Izochorický děj}{figure.caption.72}{}}
\newlabel{Fig:SVP5}{{\caption@xref {Fig:SVP5}{ on input line 2303}}{77}{Izochorický děj}{figure.caption.72}{}}
\newlabel{sub@Fig:SVP5}{{a}{77}{Izochorický děj}{figure.caption.72}{}}
\newlabel{Fig:SVP6}{{\caption@xref {Fig:SVP6}{ on input line 2323}}{77}{Izochorický děj}{figure.caption.72}{}}
\newlabel{sub@Fig:SVP6}{{b}{77}{Izochorický děj}{figure.caption.72}{}}
\@writefile{lof}{\contentsline {figure}{\numberline {14.2}{\ignorespaces Izochorick\IeC {\'y} d\IeC {\v e}j\relax }}{77}{figure.caption.72}\protected@file@percent }
\@writefile{toc}{\contentsline {subsection}{\numberline {14.3.3}Izobarick\IeC {\'y} d\IeC {\v e}j}{77}{subsection.14.3.3}\protected@file@percent }
\newlabel{izobar}{{14.3.3}{77}{Izobarický děj}{subsection.14.3.3}{}}
\newlabel{Fig:SVP7}{{\caption@xref {Fig:SVP7}{ on input line 2350}}{77}{Izobarický děj}{figure.caption.73}{}}
\newlabel{sub@Fig:SVP7}{{}{77}{Izobarický děj}{figure.caption.73}{}}
\newlabel{Fig:SVP8}{{\caption@xref {Fig:SVP8}{ on input line 2370}}{77}{Izobarický děj}{figure.caption.73}{}}
\newlabel{sub@Fig:SVP8}{{a}{77}{Izobarický děj}{figure.caption.73}{}}
\newlabel{Fig:SVP9}{{\caption@xref {Fig:SVP9}{ on input line 2390}}{77}{Izobarický děj}{figure.caption.73}{}}
\newlabel{sub@Fig:SVP9}{{b}{77}{Izobarický děj}{figure.caption.73}{}}
\@writefile{lof}{\contentsline {figure}{\numberline {14.3}{\ignorespaces Izobarick\IeC {\'y} d\IeC {\v e}j\relax }}{77}{figure.caption.73}\protected@file@percent }
\@writefile{toc}{\contentsline {subsection}{\numberline {14.3.4}Adiabatick\IeC {\'y} d\IeC {\v e}j}{77}{subsection.14.3.4}\protected@file@percent }
\@writefile{lof}{\contentsline {figure}{\numberline {14.4}{\ignorespaces Adiabatick\IeC {\'y} d\IeC {\v e}j\relax }}{78}{figure.caption.74}\protected@file@percent }
\newlabel{Fig:SVP10}{{14.4}{78}{Adiabatický děj\relax }{figure.caption.74}{}}
\@writefile{toc}{\contentsline {section}{\numberline {14.4}Kruhov\IeC {\'y} d\IeC {\v e}j}{78}{section.14.4}\protected@file@percent }
\@writefile{lof}{\contentsline {figure}{\numberline {14.5}{\ignorespaces Kruhov\IeC {\'y} dej\relax }}{79}{figure.caption.75}\protected@file@percent }
\newlabel{Fig:SVP11}{{14.5}{79}{Kruhový dej\relax }{figure.caption.75}{}}
\@writefile{toc}{\contentsline {subsection}{\numberline {14.4.1}Prvn\IeC {\'\i } termodynamick\IeC {\'y} z\IeC {\'a}kon}{79}{subsection.14.4.1}\protected@file@percent }
\@writefile{toc}{\contentsline {subsection}{\numberline {14.4.2}Druh\IeC {\'y} termodynamick\IeC {\'y} z\IeC {\'a}kon}{79}{subsection.14.4.2}\protected@file@percent }
\@writefile{toc}{\contentsline {chapter}{\numberline {15}Struktura a vlastnosti kapalin}{80}{chapter.15}\protected@file@percent }
\@writefile{lof}{\addvspace {10\p@ }}
\@writefile{lot}{\addvspace {10\p@ }}
\@writefile{toc}{\contentsline {section}{\numberline {15.1}Z\IeC {\'a}kladn\IeC {\'\i } informace}{80}{section.15.1}\protected@file@percent }
\@writefile{toc}{\contentsline {section}{\numberline {15.2}Povrchov\IeC {\'a} vrstva kapaliny}{80}{section.15.2}\protected@file@percent }
\@writefile{lof}{\contentsline {figure}{\numberline {15.1}{\ignorespaces Povrchov\IeC {\'a} vrstva kapaliny\relax }}{81}{figure.caption.76}\protected@file@percent }
\newlabel{Fig:SVK1}{{15.1}{81}{Povrchová vrstva kapaliny\relax }{figure.caption.76}{}}
\@writefile{toc}{\contentsline {subsection}{\numberline {15.2.1}Potenci\IeC {\'a}ln\IeC {\'\i } energie povrchov\IeC {\'e} vrstvy}{81}{subsection.15.2.1}\protected@file@percent }
\@writefile{toc}{\contentsline {section}{\numberline {15.3}Povrchov\IeC {\'e} nap\IeC {\v e}t\IeC {\'\i }}{81}{section.15.3}\protected@file@percent }
\newlabel{povrch nap\IeC {\v e}t\IeC {\'\i }}{{15.3}{81}{Povrchové napětí}{section.15.3}{}}
\@writefile{lof}{\contentsline {figure}{\numberline {15.2}{\ignorespaces Povrchov\IeC {\'e} nap\IeC {\v e}t\IeC {\'\i }\relax }}{82}{figure.caption.77}\protected@file@percent }
\newlabel{Fig:SVK2}{{15.2}{82}{Povrchové napětí\relax }{figure.caption.77}{}}
\@writefile{toc}{\contentsline {section}{\numberline {15.4}Jevy na rozhran\IeC {\'\i } pevn\IeC {\'e}ho t\IeC {\v e}lesa a kapaliny}{82}{section.15.4}\protected@file@percent }
\newlabel{pevn\IeC {\'e} a kapalina}{{15.4}{82}{Jevy na rozhraní pevného tělesa a kapaliny}{section.15.4}{}}
\@writefile{lof}{\contentsline {figure}{\numberline {15.3}{\ignorespaces Jevy na rozhran\IeC {\'\i } pevn\IeC {\'e}ho t\IeC {\v e}lesa a kapaliny\relax }}{82}{figure.caption.78}\protected@file@percent }
\newlabel{Fig:SVK3}{{15.3}{82}{Jevy na rozhraní pevného tělesa a kapaliny\relax }{figure.caption.78}{}}
\@writefile{lof}{\contentsline {figure}{\numberline {15.4}{\ignorespaces Vysv\IeC {\v e}tlen\IeC {\'\i } jev\IeC {\r u} na rozhran\IeC {\'\i } pevn\IeC {\'e}ho t\IeC {\v e}lesa a kapaliny\relax }}{82}{figure.caption.79}\protected@file@percent }
\newlabel{Fig:SVK4}{{15.4}{82}{Vysvětlení jevů na rozhraní pevného tělesa a kapaliny\relax }{figure.caption.79}{}}
\@writefile{toc}{\contentsline {subsection}{\numberline {15.4.1}Kapil\IeC {\'a}rn\IeC {\'\i } tlak}{83}{subsection.15.4.1}\protected@file@percent }
\newlabel{kapilarni tlak}{{15.4.1}{83}{Kapilární tlak}{subsection.15.4.1}{}}
\@writefile{lof}{\contentsline {figure}{\numberline {15.5}{\ignorespaces Kapil\IeC {\'a}rn\IeC {\'\i } tlak\relax }}{83}{figure.caption.80}\protected@file@percent }
\newlabel{Fig:SVK5}{{15.5}{83}{Kapilární tlak\relax }{figure.caption.80}{}}
\@writefile{toc}{\contentsline {subsection}{\numberline {15.4.2}Kapka}{84}{subsection.15.4.2}\protected@file@percent }
\@writefile{toc}{\contentsline {section}{\numberline {15.5}Kapilarita}{84}{section.15.5}\protected@file@percent }
\@writefile{lof}{\contentsline {figure}{\numberline {15.6}{\ignorespaces Kapilarita\relax }}{84}{figure.caption.81}\protected@file@percent }
\newlabel{Fig:SVK6}{{15.6}{84}{Kapilarita\relax }{figure.caption.81}{}}
\@writefile{toc}{\contentsline {subsection}{\numberline {15.5.1}Vyu\IeC {\v z}it\IeC {\'\i } kapilarity}{85}{subsection.15.5.1}\protected@file@percent }
\@writefile{toc}{\contentsline {section}{\numberline {15.6}Teplotn\IeC {\'\i } rozta\IeC {\v z}nost vody}{85}{section.15.6}\protected@file@percent }
\@writefile{toc}{\contentsline {subsection}{\numberline {15.6.1}Anom\IeC {\'a}lie vody}{85}{subsection.15.6.1}\protected@file@percent }
\@writefile{lof}{\contentsline {figure}{\numberline {15.7}{\ignorespaces Anom\IeC {\'a}lie vody\relax }}{85}{figure.caption.82}\protected@file@percent }
\newlabel{Fig:SVK7}{{15.7}{85}{Anomálie vody\relax }{figure.caption.82}{}}
\@writefile{toc}{\contentsline {chapter}{\numberline {16}Struktura a vlastnosti pevn\IeC {\'y}ch l\IeC {\'a}tek}{86}{chapter.16}\protected@file@percent }
\@writefile{lof}{\addvspace {10\p@ }}
\@writefile{lot}{\addvspace {10\p@ }}
\@writefile{toc}{\contentsline {section}{\numberline {16.1}Z\IeC {\'a}kladn\IeC {\'\i } informace}{86}{section.16.1}\protected@file@percent }
\newlabel{Fig:SVPL1}{{16.1a}{86}{Monokrystal\relax }{figure.caption.83}{}}
\newlabel{sub@Fig:SVPL1}{{a}{86}{Monokrystal\relax }{figure.caption.83}{}}
\newlabel{Fig:SVPL2}{{16.1b}{86}{Polykrystal\relax }{figure.caption.83}{}}
\newlabel{sub@Fig:SVPL2}{{b}{86}{Polykrystal\relax }{figure.caption.83}{}}
\@writefile{lof}{\contentsline {figure}{\numberline {16.1}{\ignorespaces Krystalick\IeC {\'e} l\IeC {\'a}tky\relax }}{86}{figure.caption.83}\protected@file@percent }
\@writefile{toc}{\contentsline {section}{\numberline {16.2}Krystalick\IeC {\'a} m\IeC {\v r}\IeC {\'\i }\IeC {\v z}ka}{87}{section.16.2}\protected@file@percent }
\newlabel{krystalicka mrizka}{{16.2}{87}{Krystalická mřížka}{section.16.2}{}}
\@writefile{lof}{\contentsline {figure}{\numberline {16.2}{\ignorespaces Ide\IeC {\'a}ln\IeC {\'\i } krystalick\IeC {\'a} m\IeC {\v r}\IeC {\'\i }\IeC {\v z}ka\relax }}{87}{figure.caption.84}\protected@file@percent }
\newlabel{Fig:SVPL3}{{16.2}{87}{Ideální krystalická mřížka\relax }{figure.caption.84}{}}
\@writefile{lof}{\contentsline {figure}{\numberline {16.3}{\ignorespaces Typy kubick\IeC {\'y}ch element\IeC {\'a}rn\IeC {\'\i }ch bun\IeC {\v e}k\relax }}{87}{figure.caption.85}\protected@file@percent }
\newlabel{Fig:SVPL4}{{16.3}{87}{Typy kubických elementárních buněk\relax }{figure.caption.85}{}}
\@writefile{toc}{\contentsline {subsection}{\numberline {16.2.1}Poruchy krystalick\IeC {\'e} m\IeC {\v r}\IeC {\'\i }\IeC {\v z}ky}{88}{subsection.16.2.1}\protected@file@percent }
\newlabel{Fig:SVPL5}{{16.4a}{88}{Vakance\relax }{figure.caption.86}{}}
\newlabel{sub@Fig:SVPL5}{{a}{88}{Vakance\relax }{figure.caption.86}{}}
\newlabel{Fig:SVPL6}{{16.4b}{88}{Intersticiální poloha částice\relax }{figure.caption.86}{}}
\newlabel{sub@Fig:SVPL6}{{b}{88}{Intersticiální poloha částice\relax }{figure.caption.86}{}}
\newlabel{Fig:SVPL7}{{16.4c}{88}{Příměs\relax }{figure.caption.86}{}}
\newlabel{sub@Fig:SVPL7}{{c}{88}{Příměs\relax }{figure.caption.86}{}}
\@writefile{lof}{\contentsline {figure}{\numberline {16.4}{\ignorespaces Poruchy krystalick\IeC {\'e} m\IeC {\v r}\IeC {\'\i }\IeC {\v z}ky\relax }}{88}{figure.caption.86}\protected@file@percent }
\@writefile{toc}{\contentsline {section}{\numberline {16.3}Vazby v krystalech}{88}{section.16.3}\protected@file@percent }
\@writefile{toc}{\contentsline {section}{\numberline {16.4}Deformace pevn\IeC {\'e}ho t\IeC {\v e}lesa}{89}{section.16.4}\protected@file@percent }
\@writefile{toc}{\contentsline {subsection}{\numberline {16.4.1}Deformace podle p\IeC {\r u}sob\IeC {\'\i }c\IeC {\'\i }ch sil}{89}{subsection.16.4.1}\protected@file@percent }
\newlabel{Fig:SVPL8}{{16.5a}{89}{Deformace tahem\relax }{figure.caption.87}{}}
\newlabel{sub@Fig:SVPL8}{{a}{89}{Deformace tahem\relax }{figure.caption.87}{}}
\newlabel{Fig:SVPL9}{{16.5b}{89}{Deformace tlakem\relax }{figure.caption.87}{}}
\newlabel{sub@Fig:SVPL9}{{b}{89}{Deformace tlakem\relax }{figure.caption.87}{}}
\newlabel{Fig:SVPL10}{{16.5c}{89}{Deformace ohybem\relax }{figure.caption.87}{}}
\newlabel{sub@Fig:SVPL10}{{c}{89}{Deformace ohybem\relax }{figure.caption.87}{}}
\newlabel{Fig:SVPL11}{{16.5d}{89}{Deformace smykem\relax }{figure.caption.87}{}}
\newlabel{sub@Fig:SVPL11}{{d}{89}{Deformace smykem\relax }{figure.caption.87}{}}
\newlabel{Fig:SVPL12}{{16.5e}{89}{Deformace krutem\relax }{figure.caption.87}{}}
\newlabel{sub@Fig:SVPL12}{{e}{89}{Deformace krutem\relax }{figure.caption.87}{}}
\@writefile{lof}{\contentsline {figure}{\numberline {16.5}{\ignorespaces Druhy deformac\IeC {\'\i }\relax }}{89}{figure.caption.87}\protected@file@percent }
\@writefile{toc}{\contentsline {section}{\numberline {16.5}S\IeC {\'\i }la pru\IeC {\v z}nosti, norm\IeC {\'a}lov\IeC {\'e} nap\IeC {\v e}t\IeC {\'\i }}{90}{section.16.5}\protected@file@percent }
\@writefile{lof}{\contentsline {figure}{\numberline {16.6}{\ignorespaces Deformace tahem\relax }}{90}{figure.caption.88}\protected@file@percent }
\newlabel{Fig:SVPL13}{{16.6}{90}{Deformace tahem\relax }{figure.caption.88}{}}
\@writefile{toc}{\contentsline {section}{\numberline {16.6}Hook\IeC {\r u}v z\IeC {\'a}kon pro pru\IeC {\v z}nou deformaci}{90}{section.16.6}\protected@file@percent }
\@writefile{toc}{\contentsline {subsection}{\numberline {16.6.1}K\IeC {\v r}ivka deformace}{91}{subsection.16.6.1}\protected@file@percent }
\@writefile{lof}{\contentsline {figure}{\numberline {16.7}{\ignorespaces K\IeC {\v r}ivka deformace\relax }}{91}{figure.caption.89}\protected@file@percent }
\newlabel{Fig:SVPL14}{{16.7}{91}{Křivka deformace\relax }{figure.caption.89}{}}
\@writefile{toc}{\contentsline {section}{\numberline {16.7}Teplotn\IeC {\'\i } rozta\IeC {\v z}nost pevn\IeC {\'y}ch l\IeC {\'a}tek}{91}{section.16.7}\protected@file@percent }
\@writefile{toc}{\contentsline {chapter}{\numberline {17}Elektrick\IeC {\'e} pole}{92}{chapter.17}\protected@file@percent }
\@writefile{lof}{\addvspace {10\p@ }}
\@writefile{lot}{\addvspace {10\p@ }}
\@writefile{toc}{\contentsline {section}{\numberline {17.1}Z\IeC {\'a}kladn\IeC {\'\i } infomace, elektrick\IeC {\'y} n\IeC {\'a}boj}{92}{section.17.1}\protected@file@percent }
\newlabel{vodivost}{{17.1}{92}{Základní infomace, elektrický náboj}{section.17.1}{}}
\@writefile{toc}{\contentsline {section}{\numberline {17.2}Coulomb\IeC {\r u}v z\IeC {\'a}kon}{93}{section.17.2}\protected@file@percent }
\newlabel{eq:EP_1}{{17.1}{93}{Coulombův zákon}{equation.17.2.1}{}}
\@writefile{lof}{\contentsline {figure}{\numberline {17.1}{\ignorespaces Coulomb\IeC {\r u}v z\IeC {\'a}kon\relax }}{93}{figure.caption.90}\protected@file@percent }
\newlabel{Fig:EP1}{{17.1}{93}{Coulombův zákon\relax }{figure.caption.90}{}}
\@writefile{toc}{\contentsline {section}{\numberline {17.3}Elektrick\IeC {\'e} pole}{94}{section.17.3}\protected@file@percent }
\@writefile{lof}{\contentsline {figure}{\numberline {17.2}{\ignorespaces Elektrick\IeC {\'a} intenzita\relax }}{94}{figure.caption.91}\protected@file@percent }
\newlabel{Fig:EP2}{{17.2}{94}{Elektrická intenzita\relax }{figure.caption.91}{}}
\newlabel{Fig:EP3}{{\caption@xref {Fig:EP3}{ on input line 2983}}{94}{Elektrické pole}{figure.caption.92}{}}
\@writefile{lof}{\contentsline {figure}{\numberline {17.3}{\ignorespaces Elektrick\IeC {\'e} pole jednoho n\IeC {\'a}boje\relax }}{94}{figure.caption.92}\protected@file@percent }
\newlabel{el intenzita voda}{{5}{94}{}{Hfootnote.49}{}}
\newlabel{Fig:EP4}{{\caption@xref {Fig:EP4}{ on input line 2990}}{95}{Elektrické pole}{figure.caption.93}{}}
\@writefile{lof}{\contentsline {figure}{\numberline {17.4}{\ignorespaces Elektrick\IeC {\'e} pole dvou n\IeC {\'a}boj\IeC {\r u}\relax }}{95}{figure.caption.93}\protected@file@percent }
\@writefile{toc}{\contentsline {section}{\numberline {17.4}Pr\IeC {\'a}ce v elektrick\IeC {\'e}m poli, elektrick\IeC {\'e} nap\IeC {\v e}t\IeC {\'\i }}{95}{section.17.4}\protected@file@percent }
\@writefile{lof}{\contentsline {figure}{\numberline {17.5}{\ignorespaces Pr\IeC {\'a}ce v elektrick\IeC {\'e}m poli\relax }}{95}{figure.caption.94}\protected@file@percent }
\newlabel{Fig:EP5}{{17.5}{95}{Práce v elektrickém poli\relax }{figure.caption.94}{}}
\@writefile{toc}{\contentsline {section}{\numberline {17.5}Potenci\IeC {\'a}ln\IeC {\'\i } energie a elektrick\IeC {\'y} potenci\IeC {\'a}l}{96}{section.17.5}\protected@file@percent }
\@writefile{toc}{\contentsline {subsection}{\numberline {17.5.1}Ekvipotenci\IeC {\'a}ln\IeC {\'\i } plochy}{96}{subsection.17.5.1}\protected@file@percent }
\@writefile{toc}{\contentsline {section}{\numberline {17.6}Elektrostatick\IeC {\'e} pole nabit\IeC {\'e}ho vodiv\IeC {\'e}ho t\IeC {\v e}lesa}{96}{section.17.6}\protected@file@percent }
\@writefile{lof}{\contentsline {figure}{\numberline {17.6}{\ignorespaces Elektrick\IeC {\'e} pole vevnit\IeC {\v r} a vn\IeC {\v e} koule\relax }}{97}{figure.caption.95}\protected@file@percent }
\newlabel{Fig:EP6}{{17.6}{97}{Elektrické pole vevnitř a vně koule\relax }{figure.caption.95}{}}
\@writefile{toc}{\contentsline {section}{\numberline {17.7}T\IeC {\v e}lesa v elektrostatick\IeC {\'e}m poli}{97}{section.17.7}\protected@file@percent }
\newlabel{elektrostaticka indukce}{{17.7}{97}{Tělesa v elektrostatickém poli}{section.17.7}{}}
\@writefile{toc}{\contentsline {subsection}{\numberline {17.7.1}Vodi\IeC {\v c} v elektrostatick\IeC {\'e}m poli}{97}{subsection.17.7.1}\protected@file@percent }
\@writefile{lof}{\contentsline {figure}{\numberline {17.7}{\ignorespaces Elektrostatick\IeC {\'a} indukce\relax }}{98}{figure.caption.96}\protected@file@percent }
\newlabel{Fig:EP7}{{17.7}{98}{Elektrostatická indukce\relax }{figure.caption.96}{}}
\newlabel{Fig:EP8}{{17.8a}{98}{Rovnovážný stav\relax }{figure.caption.97}{}}
\newlabel{sub@Fig:EP8}{{a}{98}{Rovnovážný stav\relax }{figure.caption.97}{}}
\newlabel{Fig:EP9}{{17.8b}{98}{Indukovaný náboj\relax }{figure.caption.97}{}}
\newlabel{sub@Fig:EP9}{{b}{98}{Indukovaný náboj\relax }{figure.caption.97}{}}
\newlabel{Fig:EP10}{{17.8c}{98}{Uzemnění tělesa\relax }{figure.caption.97}{}}
\newlabel{sub@Fig:EP10}{{c}{98}{Uzemnění tělesa\relax }{figure.caption.97}{}}
\@writefile{lof}{\contentsline {figure}{\numberline {17.8}{\ignorespaces Elektrostatick\IeC {\'a} indukce\relax }}{98}{figure.caption.97}\protected@file@percent }
\@writefile{toc}{\contentsline {subsection}{\numberline {17.7.2}Izolant v elektrostatick\IeC {\'e}m poli}{98}{subsection.17.7.2}\protected@file@percent }
\newlabel{Fig:EP11}{{17.9a}{99}{Atom v normálním stavu\relax }{figure.caption.98}{}}
\newlabel{sub@Fig:EP11}{{a}{99}{Atom v normálním stavu\relax }{figure.caption.98}{}}
\newlabel{Fig:EP12}{{17.9b}{99}{Atom v elektrostatickém poli\relax }{figure.caption.98}{}}
\newlabel{sub@Fig:EP12}{{b}{99}{Atom v elektrostatickém poli\relax }{figure.caption.98}{}}
\@writefile{lof}{\contentsline {figure}{\numberline {17.9}{\ignorespaces Polarizace dielektrika\relax }}{99}{figure.caption.98}\protected@file@percent }
\@writefile{lof}{\contentsline {figure}{\numberline {17.10}{\ignorespaces Orienta\IeC {\v c}n\IeC {\'\i } polarizace dielektrika\relax }}{99}{figure.caption.99}\protected@file@percent }
\newlabel{Fig:EP13}{{17.10}{99}{Orientační polarizace dielektrika\relax }{figure.caption.99}{}}
\@writefile{toc}{\contentsline {section}{\numberline {17.8}Kapacita vodi\IeC {\v c}e, kondenz\IeC {\'a}tor}{99}{section.17.8}\protected@file@percent }
\@writefile{toc}{\contentsline {subsection}{\numberline {17.8.1}Spojov\IeC {\'a}n\IeC {\'\i } kondenz\IeC {\'a}tor\IeC {\r u}}{100}{subsection.17.8.1}\protected@file@percent }
\@writefile{lof}{\contentsline {figure}{\numberline {17.11}{\ignorespaces Spojov\IeC {\'a}n\IeC {\'\i } kondenz\IeC {\'a}tor\IeC {\r u}\relax }}{101}{figure.caption.100}\protected@file@percent }
\newlabel{Fig:EP14}{{17.11}{101}{Spojování kondenzátorů\relax }{figure.caption.100}{}}
\@writefile{toc}{\contentsline {subsection}{\numberline {17.8.2}Energie kondenz\IeC {\'a}toru}{101}{subsection.17.8.2}\protected@file@percent }
\@writefile{lof}{\contentsline {figure}{\numberline {17.12}{\ignorespaces Energie kondenz\IeC {\'a}toru\relax }}{101}{figure.caption.101}\protected@file@percent }
\newlabel{Fig:EP15}{{17.12}{101}{Energie kondenzátoru\relax }{figure.caption.101}{}}
\@writefile{toc}{\contentsline {chapter}{\numberline {18}Obvod stejnosm\IeC {\v e}rn\IeC {\'e}ho elektrick\IeC {\'e}ho proudu}{102}{chapter.18}\protected@file@percent }
\@writefile{lof}{\addvspace {10\p@ }}
\@writefile{lot}{\addvspace {10\p@ }}
\newlabel{obvod stejno el proudu}{{18}{102}{Obvod stejnosměrného elektrického proudu}{chapter.18}{}}
\@writefile{toc}{\contentsline {section}{\numberline {18.1}Elektrick\IeC {\'y} proud}{102}{section.18.1}\protected@file@percent }
\@writefile{toc}{\contentsline {paragraph}{Definice:}{102}{section*.102}\protected@file@percent }
\@writefile{toc}{\contentsline {section}{\numberline {18.2}Elektrick\IeC {\'y} zdroj}{103}{section.18.2}\protected@file@percent }
\@writefile{lof}{\contentsline {figure}{\numberline {18.1}{\ignorespaces Elektrick\IeC {\'y} zdroj\relax }}{103}{figure.caption.103}\protected@file@percent }
\newlabel{Fig:OSEP1}{{18.1}{103}{Elektrický zdroj\relax }{figure.caption.103}{}}
\@writefile{toc}{\contentsline {subsection}{\numberline {18.2.1}Druhy elektrick\IeC {\'y}ch zdroj\IeC {\r u}}{104}{subsection.18.2.1}\protected@file@percent }
\@writefile{toc}{\contentsline {section}{\numberline {18.3}Elektrick\IeC {\'y} proud ve vodi\IeC {\v c}\IeC {\'\i }ch}{104}{section.18.3}\protected@file@percent }
\@writefile{toc}{\contentsline {subsection}{\numberline {18.3.1}Z\IeC {\'a}vislost odporu na tvaru a materi\IeC {\'a}lu vodi\IeC {\v c}e}{105}{subsection.18.3.1}\protected@file@percent }
\@writefile{toc}{\contentsline {subsection}{\numberline {18.3.2}Z\IeC {\'a}vislost odporu na teplot\IeC {\v e}}{105}{subsection.18.3.2}\protected@file@percent }
\@writefile{toc}{\contentsline {subsection}{\numberline {18.3.3}Rozsahy m\IeC {\v e}\IeC {\v r}\IeC {\'\i }c\IeC {\'\i }ch p\IeC {\v r}\IeC {\'\i }stroj\IeC {\r u}}{105}{subsection.18.3.3}\protected@file@percent }
\@writefile{toc}{\contentsline {subsection}{\numberline {18.3.4}Rezistory s prom\IeC {\v e}nn\IeC {\'y}m odporem}{106}{subsection.18.3.4}\protected@file@percent }
\@writefile{lof}{\contentsline {figure}{\numberline {18.2}{\ignorespaces Reostat\relax }}{106}{figure.caption.104}\protected@file@percent }
\newlabel{Fig:OSEP2}{{18.2}{106}{Reostat\relax }{figure.caption.104}{}}
\@writefile{lof}{\contentsline {figure}{\numberline {18.3}{\ignorespaces Potenciometr\relax }}{106}{figure.caption.105}\protected@file@percent }
\newlabel{Fig:OSEP3}{{18.3}{106}{Potenciometr\relax }{figure.caption.105}{}}
\@writefile{lof}{\contentsline {figure}{\numberline {18.4}{\ignorespaces Schematick\IeC {\'e} zna\IeC {\v c}ky rezistor\IeC {\r u}\relax }}{106}{figure.caption.106}\protected@file@percent }
\newlabel{Fig:OSEP4}{{18.4}{106}{Schematické značky rezistorů\relax }{figure.caption.106}{}}
\@writefile{toc}{\contentsline {subsection}{\numberline {18.3.5}Zna\IeC {\v c}ky elektrick\IeC {\'y}ch spot\IeC {\v r}ebi\IeC {\v c}\IeC {\r u}}{106}{subsection.18.3.5}\protected@file@percent }
\newlabel{znacky}{{18.3.5}{106}{Značky elektrických spotřebičů}{subsection.18.3.5}{}}
\@writefile{lof}{\contentsline {figure}{\numberline {18.5}{\ignorespaces Zna\IeC {\v c}ky el. spot\IeC {\v r}ebi\IeC {\v c}\IeC {\r u}\relax }}{106}{figure.caption.107}\protected@file@percent }
\newlabel{Fig:OSEP5}{{18.5}{106}{Značky el. spotřebičů\relax }{figure.caption.107}{}}
\@writefile{toc}{\contentsline {section}{\numberline {18.4}Ohm\IeC {\r u}v z\IeC {\'a}kon pro uzav\IeC {\v r}en\IeC {\'y} obvod}{107}{section.18.4}\protected@file@percent }
\@writefile{toc}{\contentsline {section}{\numberline {18.5}Spojov\IeC {\'a}n\IeC {\'\i } rezistor\IeC {\r u}}{107}{section.18.5}\protected@file@percent }
\@writefile{toc}{\contentsline {section}{\numberline {18.6}Kirchhoffovy z\IeC {\'a}kony}{107}{section.18.6}\protected@file@percent }
\@writefile{toc}{\contentsline {section}{\numberline {18.7}Pr\IeC {\'a}ce a v\IeC {\'y}kon stejnosm\IeC {\v e}rn\IeC {\'e}ho proudu}{108}{section.18.7}\protected@file@percent }
\@writefile{toc}{\contentsline {subsection}{\numberline {18.7.1}\IeC {\'U}\IeC {\v c}innost obvodu}{108}{subsection.18.7.1}\protected@file@percent }
\@writefile{toc}{\contentsline {chapter}{\numberline {19}Elektrick\IeC {\'y} proud v l\IeC {\'a}tk\IeC {\'a}ch}{109}{chapter.19}\protected@file@percent }
\@writefile{lof}{\addvspace {10\p@ }}
\@writefile{lot}{\addvspace {10\p@ }}
\@writefile{toc}{\contentsline {section}{\numberline {19.1}Elektrick\IeC {\'y} proud v polovodi\IeC {\v c}\IeC {\'\i }ch}{109}{section.19.1}\protected@file@percent }
\@writefile{toc}{\contentsline {subsection}{\numberline {19.1.1}Vlastn\IeC {\'\i } vodivost}{109}{subsection.19.1.1}\protected@file@percent }
\@writefile{lof}{\contentsline {figure}{\numberline {19.1}{\ignorespaces Generace\relax }}{110}{figure.caption.108}\protected@file@percent }
\newlabel{Fig:EPL1}{{19.1}{110}{Generace\relax }{figure.caption.108}{}}
\@writefile{toc}{\contentsline {subsection}{\numberline {19.1.2}Nevlastn\IeC {\'\i } vodivost}{110}{subsection.19.1.2}\protected@file@percent }
\@writefile{lof}{\contentsline {figure}{\numberline {19.2}{\ignorespaces Vodivost N\relax }}{110}{figure.caption.109}\protected@file@percent }
\newlabel{Fig:EPL2}{{19.2}{110}{Vodivost N\relax }{figure.caption.109}{}}
\@writefile{lof}{\contentsline {figure}{\numberline {19.3}{\ignorespaces Vodivost P\relax }}{111}{figure.caption.110}\protected@file@percent }
\newlabel{Fig:EPL3}{{19.3}{111}{Vodivost P\relax }{figure.caption.110}{}}
\@writefile{toc}{\contentsline {subsection}{\numberline {19.1.3}P\IeC {\v r}echod PN}{111}{subsection.19.1.3}\protected@file@percent }
\@writefile{lof}{\contentsline {figure}{\numberline {19.4}{\ignorespaces PN p\IeC {\v r}echod bez elektrostatick\IeC {\'e}ho pole\relax }}{111}{figure.caption.111}\protected@file@percent }
\newlabel{Fig:EPL4}{{19.4}{111}{PN přechod bez elektrostatického pole\relax }{figure.caption.111}{}}
\@writefile{lof}{\contentsline {figure}{\numberline {19.5}{\ignorespaces Hradlov\IeC {\'a} vrstva\relax }}{111}{figure.caption.112}\protected@file@percent }
\newlabel{Fig:EPL5}{{19.5}{111}{Hradlová vrstva\relax }{figure.caption.112}{}}
\@writefile{lof}{\contentsline {figure}{\numberline {19.6}{\ignorespaces Propustn\IeC {\'y} sm\IeC {\v e}r\relax }}{112}{figure.caption.113}\protected@file@percent }
\newlabel{Fig:EPL6}{{19.6}{112}{Propustný směr\relax }{figure.caption.113}{}}
\@writefile{lof}{\contentsline {figure}{\numberline {19.7}{\ignorespaces Z\IeC {\'a}v\IeC {\v e}rn\IeC {\'y} sm\IeC {\v e}r\relax }}{112}{figure.caption.114}\protected@file@percent }
\newlabel{Fig:EPL7}{{19.7}{112}{Závěrný směr\relax }{figure.caption.114}{}}
\@writefile{lof}{\contentsline {figure}{\numberline {19.8}{\ignorespaces Dioda\relax }}{112}{figure.caption.115}\protected@file@percent }
\newlabel{Fig:EPL8}{{19.8}{112}{Dioda\relax }{figure.caption.115}{}}
\@writefile{toc}{\contentsline {section}{\numberline {19.2}Elektrick\IeC {\'y} proud v kapalin\IeC {\'a}ch}{112}{section.19.2}\protected@file@percent }
\@writefile{toc}{\contentsline {subsection}{\numberline {19.2.1}Z\IeC {\'a}kladn\IeC {\'\i } informace}{112}{subsection.19.2.1}\protected@file@percent }
\@writefile{toc}{\contentsline {subsection}{\numberline {19.2.2}Faradayovy z\IeC {\'a}kony}{113}{subsection.19.2.2}\protected@file@percent }
\@writefile{toc}{\contentsline {subsubsection}{Faraday\IeC {\r u}v z\IeC {\'a}kon pro elektrol\IeC {\'y}zu}{113}{section*.116}\protected@file@percent }
\@writefile{toc}{\contentsline {subsubsection}{Prvn\IeC {\'\i } Faraday\IeC {\r u}v z\IeC {\'a}kon}{113}{section*.117}\protected@file@percent }
\@writefile{toc}{\contentsline {subsubsection}{Druh\IeC {\'y} Faraday\IeC {\r u}v z\IeC {\'a}kon}{114}{section*.118}\protected@file@percent }
\@writefile{toc}{\contentsline {subsection}{\numberline {19.2.3}Galvanick\IeC {\'e} \IeC {\v c}l\IeC {\'a}nky}{114}{subsection.19.2.3}\protected@file@percent }
\newlabel{galvanicke clanky}{{19.2.3}{114}{Galvanické články}{subsection.19.2.3}{}}
\@writefile{toc}{\contentsline {section}{\numberline {19.3}Elektrick\IeC {\'y} proud v plynech}{114}{section.19.3}\protected@file@percent }
\@writefile{lof}{\contentsline {figure}{\numberline {19.9}{\ignorespaces Voltamp\IeC {\'e}rov\IeC {\'a} charakteristika v\IeC {\'y}boje\relax }}{115}{figure.caption.119}\protected@file@percent }
\newlabel{Fig:EPL9}{{19.9}{115}{Voltampérová charakteristika výboje\relax }{figure.caption.119}{}}
\@writefile{toc}{\contentsline {subsection}{\numberline {19.3.1}V\IeC {\'y}boje za atmosferick\IeC {\'e}ho a sn\IeC {\'\i }\IeC {\v z}en\IeC {\'e}ho tlaku}{115}{subsection.19.3.1}\protected@file@percent }
\@writefile{lof}{\contentsline {figure}{\numberline {19.10}{\ignorespaces Doutnav\IeC {\'y} v\IeC {\'y}boj\relax }}{116}{figure.caption.120}\protected@file@percent }
\newlabel{Fig:EPL10}{{19.10}{116}{Doutnavý výboj\relax }{figure.caption.120}{}}
\@writefile{toc}{\contentsline {chapter}{\numberline {20}Obvod st\IeC {\v r}\IeC {\'\i }dav\IeC {\'e}ho proudu}{117}{chapter.20}\protected@file@percent }
\@writefile{lof}{\addvspace {10\p@ }}
\@writefile{lot}{\addvspace {10\p@ }}
\@writefile{toc}{\contentsline {section}{\numberline {20.1}Z\IeC {\'a}kladn\IeC {\'\i } informace}{117}{section.20.1}\protected@file@percent }
\@writefile{lof}{\contentsline {figure}{\numberline {20.1}{\ignorespaces Zdroj st\IeC {\v r}\IeC {\'\i }dav\IeC {\'e}ho nap\IeC {\v e}t\IeC {\'\i }\relax }}{117}{figure.caption.121}\protected@file@percent }
\newlabel{Fig:OSP1}{{20.1}{117}{Zdroj střídavého napětí\relax }{figure.caption.121}{}}
\@writefile{lof}{\contentsline {figure}{\numberline {20.2}{\ignorespaces \IeC {\v C}asov\IeC {\'e} diagramy st\IeC {\v r}\IeC {\'\i }dav\IeC {\'e}ho nap\IeC {\v e}t\IeC {\'\i }\relax }}{118}{figure.caption.122}\protected@file@percent }
\newlabel{Fig:OSP2}{{20.2}{118}{Časové diagramy střídavého napětí\relax }{figure.caption.122}{}}
\@writefile{toc}{\contentsline {section}{\numberline {20.2}Jednoduch\IeC {\'e} obvody st\IeC {\v r}\IeC {\'\i }dav\IeC {\'e}ho proudu}{118}{section.20.2}\protected@file@percent }
\@writefile{toc}{\contentsline {subsection}{\numberline {20.2.1}Obvod s rezistorem}{118}{subsection.20.2.1}\protected@file@percent }
\newlabel{Fig:OSP3}{{20.3a}{118}{Schematický nákres\relax }{figure.caption.123}{}}
\newlabel{sub@Fig:OSP3}{{a}{118}{Schematický nákres\relax }{figure.caption.123}{}}
\newlabel{Fig:OSP4}{{20.3b}{118}{Časový diagram\relax }{figure.caption.123}{}}
\newlabel{sub@Fig:OSP4}{{b}{118}{Časový diagram\relax }{figure.caption.123}{}}
\newlabel{Fig:OSP5}{{20.3c}{118}{Fázorový diagram\relax }{figure.caption.123}{}}
\newlabel{sub@Fig:OSP5}{{c}{118}{Fázorový diagram\relax }{figure.caption.123}{}}
\@writefile{lof}{\contentsline {figure}{\numberline {20.3}{\ignorespaces Obvod s rezistorem\relax }}{118}{figure.caption.123}\protected@file@percent }
\@writefile{toc}{\contentsline {subsection}{\numberline {20.2.2}Obvod s c\IeC {\'\i }vkou}{119}{subsection.20.2.2}\protected@file@percent }
\newlabel{Fig:OSP6}{{20.4a}{119}{Schematický nákres\relax }{figure.caption.124}{}}
\newlabel{sub@Fig:OSP6}{{a}{119}{Schematický nákres\relax }{figure.caption.124}{}}
\newlabel{Fig:OSP7}{{20.4b}{119}{Časový diagram\relax }{figure.caption.124}{}}
\newlabel{sub@Fig:OSP7}{{b}{119}{Časový diagram\relax }{figure.caption.124}{}}
\newlabel{Fig:OSP8}{{20.4c}{119}{Fázorový diagram\relax }{figure.caption.124}{}}
\newlabel{sub@Fig:OSP8}{{c}{119}{Fázorový diagram\relax }{figure.caption.124}{}}
\@writefile{lof}{\contentsline {figure}{\numberline {20.4}{\ignorespaces Obvod s c\IeC {\'\i }vkou\relax }}{119}{figure.caption.124}\protected@file@percent }
\@writefile{toc}{\contentsline {subsection}{\numberline {20.2.3}Obvod s kondenz\IeC {\'a}torem}{119}{subsection.20.2.3}\protected@file@percent }
\newlabel{Fig:OSP9}{{20.5a}{120}{Schematický nákres\relax }{figure.caption.125}{}}
\newlabel{sub@Fig:OSP9}{{a}{120}{Schematický nákres\relax }{figure.caption.125}{}}
\newlabel{Fig:OSP10}{{20.5b}{120}{Časový diagram\relax }{figure.caption.125}{}}
\newlabel{sub@Fig:OSP10}{{b}{120}{Časový diagram\relax }{figure.caption.125}{}}
\newlabel{Fig:OSP11}{{20.5c}{120}{Fázorový diagram\relax }{figure.caption.125}{}}
\newlabel{sub@Fig:OSP11}{{c}{120}{Fázorový diagram\relax }{figure.caption.125}{}}
\@writefile{lof}{\contentsline {figure}{\numberline {20.5}{\ignorespaces Obvod s kondenz\IeC {\'a}torem\relax }}{120}{figure.caption.125}\protected@file@percent }
\@writefile{toc}{\contentsline {section}{\numberline {20.3}S\IeC {\'e}riov\IeC {\'y} RLC obvod}{120}{section.20.3}\protected@file@percent }
\newlabel{Fig:OSP12}{{20.6a}{120}{Schematický nákres\relax }{figure.caption.126}{}}
\newlabel{sub@Fig:OSP12}{{a}{120}{Schematický nákres\relax }{figure.caption.126}{}}
\newlabel{Fig:OSP13}{{20.6b}{120}{Fázorový diagram\relax }{figure.caption.126}{}}
\newlabel{sub@Fig:OSP13}{{b}{120}{Fázorový diagram\relax }{figure.caption.126}{}}
\@writefile{lof}{\contentsline {figure}{\numberline {20.6}{\ignorespaces S\IeC {\'e}riov\IeC {\'y} RLC obvod\relax }}{120}{figure.caption.126}\protected@file@percent }
\@writefile{lof}{\contentsline {figure}{\numberline {20.7}{\ignorespaces Impedance obvodu v z\IeC {\'a}vislosti na frekvenci v s\IeC {\'e}riov\IeC {\'e}m RLC obvodu\relax }}{121}{figure.caption.127}\protected@file@percent }
\newlabel{Fig:OSP14}{{20.7}{121}{Impedance obvodu v závislosti na frekvenci v sériovém RLC obvodu\relax }{figure.caption.127}{}}
\@writefile{toc}{\contentsline {section}{\numberline {20.4}Paraleln\IeC {\'\i } RLC obvod}{121}{section.20.4}\protected@file@percent }
\newlabel{Fig:OSP15}{{20.8a}{121}{Schematický nákres\relax }{figure.caption.128}{}}
\newlabel{sub@Fig:OSP15}{{a}{121}{Schematický nákres\relax }{figure.caption.128}{}}
\newlabel{Fig:OSP16}{{20.8b}{121}{Fázorový diagram\relax }{figure.caption.128}{}}
\newlabel{sub@Fig:OSP16}{{b}{121}{Fázorový diagram\relax }{figure.caption.128}{}}
\@writefile{lof}{\contentsline {figure}{\numberline {20.8}{\ignorespaces Paraleln\IeC {\'\i } RLC obvod\relax }}{121}{figure.caption.128}\protected@file@percent }
\@writefile{lof}{\contentsline {figure}{\numberline {20.9}{\ignorespaces Impedance v z\IeC {\'a}vislosti na frekvenci v paraleln\IeC {\'\i }m RLC obvodu\relax }}{122}{figure.caption.129}\protected@file@percent }
\newlabel{Fig:OSP17}{{20.9}{122}{Impedance v závislosti na frekvenci v paralelním RLC obvodu\relax }{figure.caption.129}{}}
\@writefile{toc}{\contentsline {section}{\numberline {20.5}V\IeC {\'y}kon}{122}{section.20.5}\protected@file@percent }
\@writefile{toc}{\contentsline {subsection}{\numberline {20.5.1}Obvod s rezistorem}{122}{subsection.20.5.1}\protected@file@percent }
\newlabel{ef hodnota}{{20.5.1}{122}{Obvod s rezistorem}{subsection.20.5.1}{}}
\@writefile{lof}{\contentsline {figure}{\numberline {20.10}{\ignorespaces Pr\IeC {\'a}ce st\IeC {\v r}\IeC {\'\i }dav\IeC {\'e}ho proudu\relax }}{123}{figure.caption.130}\protected@file@percent }
\newlabel{Fig:OSP18}{{20.10}{123}{Práce střídavého proudu\relax }{figure.caption.130}{}}
\@writefile{toc}{\contentsline {subsection}{\numberline {20.5.2}Obvod s impedanc\IeC {\'\i }}{123}{subsection.20.5.2}\protected@file@percent }
\@writefile{toc}{\contentsline {section}{\numberline {20.6}Technick\IeC {\'e} vyu\IeC {\v z}it\IeC {\'\i } st\IeC {\v r}\IeC {\'\i }dav\IeC {\'e}ho proudu}{123}{section.20.6}\protected@file@percent }
\newlabel{generator stridaveho proudu}{{20.6}{123}{Technické využití střídavého proudu}{section.20.6}{}}
\@writefile{lof}{\contentsline {figure}{\numberline {20.11}{\ignorespaces Sch\IeC {\'e}ma altern\IeC {\'a}toru\relax }}{124}{figure.caption.131}\protected@file@percent }
\newlabel{Fig:OSP19}{{20.11}{124}{Schéma alternátoru\relax }{figure.caption.131}{}}
\@writefile{lof}{\contentsline {figure}{\numberline {20.12}{\ignorespaces Nap\IeC {\v e}t\IeC {\'\i } na c\IeC {\'\i }vk\IeC {\'a}ch altern\IeC {\'a}toru\relax }}{124}{figure.caption.132}\protected@file@percent }
\newlabel{Fig:OSP20}{{20.12}{124}{Napětí na cívkách alternátoru\relax }{figure.caption.132}{}}
\@writefile{lof}{\contentsline {figure}{\numberline {20.13}{\ignorespaces Jednof\IeC {\'a}zov\IeC {\'y} transform\IeC {\'a}tor\relax }}{125}{figure.caption.133}\protected@file@percent }
\newlabel{Fig:OSP21}{{20.13}{125}{Jednofázový transformátor\relax }{figure.caption.133}{}}
\@writefile{toc}{\contentsline {chapter}{\numberline {21}Stacion\IeC {\'a}rn\IeC {\'\i } magnetick\IeC {\'e} pole}{126}{chapter.21}\protected@file@percent }
\@writefile{lof}{\addvspace {10\p@ }}
\@writefile{lot}{\addvspace {10\p@ }}
\newlabel{stacionarni magneticke pole}{{21}{126}{Stacionární magnetické pole}{chapter.21}{}}
\@writefile{toc}{\contentsline {section}{\numberline {21.1}Z\IeC {\'a}kladn\IeC {\'\i } informace}{126}{section.21.1}\protected@file@percent }
\@writefile{lof}{\contentsline {figure}{\numberline {21.1}{\ignorespaces Magnetick\IeC {\'e} induk\IeC {\v c}n\IeC {\'\i } \IeC {\v c}\IeC {\'a}ry\relax }}{126}{figure.caption.134}\protected@file@percent }
\newlabel{Fig:SMP1}{{21.1}{126}{Magnetické indukční čáry\relax }{figure.caption.134}{}}
\newlabel{Fig:SMP2}{{21.2a}{127}{Proudový závit\relax }{figure.caption.135}{}}
\newlabel{sub@Fig:SMP2}{{a}{127}{Proudový závit\relax }{figure.caption.135}{}}
\newlabel{Fig:SMP3}{{21.2b}{127}{Magnetické pole cívky\relax }{figure.caption.135}{}}
\newlabel{sub@Fig:SMP3}{{b}{127}{Magnetické pole cívky\relax }{figure.caption.135}{}}
\@writefile{toc}{\contentsline {section}{\numberline {21.2}Magnetick\IeC {\'a} s\IeC {\'\i }la}{127}{section.21.2}\protected@file@percent }
\newlabel{Fig:SMP4}{{\caption@xref {Fig:SMP4}{ on input line 4106}}{128}{Magnetická síla}{figure.caption.136}{}}
\newlabel{sub@Fig:SMP4}{{}{128}{Magnetická síla}{figure.caption.136}{}}
\newlabel{Fig:SMP5}{{\caption@xref {Fig:SMP5}{ on input line 4112}}{128}{Magnetická síla}{figure.caption.136}{}}
\newlabel{sub@Fig:SMP5}{{}{128}{Magnetická síla}{figure.caption.136}{}}
\@writefile{lof}{\contentsline {figure}{\numberline {21.3}{\ignorespaces Vodi\IeC {\v c} v homogenn\IeC {\'\i }m poli\relax }}{128}{figure.caption.136}\protected@file@percent }
\@writefile{toc}{\contentsline {section}{\numberline {21.3}Magnetick\IeC {\'a} indukce}{128}{section.21.3}\protected@file@percent }
\newlabel{magneticka indukce}{{21.3}{128}{Magnetická indukce}{section.21.3}{}}
\newlabel{eq:SMP_1}{{21.1}{128}{Magnetická indukce}{equation.21.3.1}{}}
\@writefile{lof}{\contentsline {figure}{\numberline {21.4}{\ignorespaces Magnetick\IeC {\'a} indukce\relax }}{128}{figure.caption.137}\protected@file@percent }
\newlabel{Fig:SMP6}{{21.4}{128}{Magnetická indukce\relax }{figure.caption.137}{}}
\newlabel{eq:SMP_2}{{21.2}{129}{Magnetická indukce}{equation.21.3.2}{}}
\newlabel{eq:SMP_3}{{21.3}{129}{Magnetická indukce}{equation.21.3.3}{}}
\@writefile{toc}{\contentsline {subsection}{\numberline {21.3.1}Amp\IeC {\'e}r\IeC {\r u}v z\IeC {\'a}kon}{129}{subsection.21.3.1}\protected@file@percent }
\@writefile{lof}{\contentsline {figure}{\numberline {21.5}{\ignorespaces Amp\IeC {\'e}r\IeC {\r u}v z\IeC {\'a}kon\relax }}{130}{figure.caption.138}\protected@file@percent }
\newlabel{Fig:SMP7}{{21.5}{130}{Ampérův zákon\relax }{figure.caption.138}{}}
\@writefile{toc}{\contentsline {section}{\numberline {21.4}Nabit\IeC {\'a} \IeC {\v c}\IeC {\'a}stice v magnetick\IeC {\'e}m poli}{130}{section.21.4}\protected@file@percent }
\@writefile{lof}{\contentsline {figure}{\numberline {21.6}{\ignorespaces Hmotnostn\IeC {\'\i } spektrometr\relax }}{131}{figure.caption.139}\protected@file@percent }
\newlabel{Fig:SMP8}{{21.6}{131}{Hmotnostní spektrometr\relax }{figure.caption.139}{}}
\@writefile{toc}{\contentsline {section}{\numberline {21.5}Magnetick\IeC {\'e} vlastnosti objekt\IeC {\r u}}{131}{section.21.5}\protected@file@percent }
\@writefile{toc}{\contentsline {subsection}{\numberline {21.5.1}Magnetick\IeC {\'e} vlastnosti atom\IeC {\r u}}{131}{subsection.21.5.1}\protected@file@percent }
\@writefile{toc}{\contentsline {subsection}{\numberline {21.5.2}Magnetick\IeC {\'e} vlastnosti l\IeC {\'a}tek}{131}{subsection.21.5.2}\protected@file@percent }
\@writefile{lof}{\contentsline {figure}{\numberline {21.7}{\ignorespaces Dom\IeC {\'e}ny ve feromagnetick\IeC {\'e} l\IeC {\'a}tce\relax }}{132}{figure.caption.140}\protected@file@percent }
\newlabel{Fig:SMP9}{{21.7}{132}{Domény ve feromagnetické látce\relax }{figure.caption.140}{}}
\@writefile{toc}{\contentsline {subsection}{\numberline {21.5.3}Magnetick\IeC {\'a} hystereze}{132}{subsection.21.5.3}\protected@file@percent }
\@writefile{lof}{\contentsline {figure}{\numberline {21.8}{\ignorespaces Magnetick\IeC {\'a} hystereze\relax }}{133}{figure.caption.141}\protected@file@percent }
\newlabel{Fig:SMP10}{{21.8}{133}{Magnetická hystereze\relax }{figure.caption.141}{}}
\@writefile{toc}{\contentsline {section}{\numberline {21.6}Technick\IeC {\'e} vyu\IeC {\v z}it\IeC {\'\i }}{133}{section.21.6}\protected@file@percent }
\@writefile{toc}{\contentsline {chapter}{\numberline {22}Nestacion\IeC {\'a}rn\IeC {\'\i } magnetick\IeC {\'e} pole}{134}{chapter.22}\protected@file@percent }
\@writefile{lof}{\addvspace {10\p@ }}
\@writefile{lot}{\addvspace {10\p@ }}
\newlabel{nestacionarni mag pole}{{22}{134}{Nestacionární magnetické pole}{chapter.22}{}}
\@writefile{toc}{\contentsline {section}{\numberline {22.1}Elektromagnetick\IeC {\'a} indukce}{134}{section.22.1}\protected@file@percent }
\@writefile{toc}{\contentsline {section}{\numberline {22.2}Magnetick\IeC {\'y} induk\IeC {\v c}n\IeC {\'\i } tok}{134}{section.22.2}\protected@file@percent }
\@writefile{lof}{\contentsline {figure}{\numberline {22.1}{\ignorespaces Ot\IeC {\'a}\IeC {\v c}ej\IeC {\'\i }c\IeC {\'\i } se smy\IeC {\v c}ka v magnetick\IeC {\'e}m poli\relax }}{135}{figure.caption.142}\protected@file@percent }
\newlabel{Fig:NMP1}{{22.1}{135}{Otáčející se smyčka v magnetickém poli\relax }{figure.caption.142}{}}
\@writefile{toc}{\contentsline {section}{\numberline {22.3}Faraday\IeC {\r u}v z\IeC {\'a}kon elektromagnetick\IeC {\'e} indukce}{135}{section.22.3}\protected@file@percent }
\@writefile{toc}{\contentsline {section}{\numberline {22.4}Indukovan\IeC {\'y} proud}{136}{section.22.4}\protected@file@percent }
\newlabel{lenzuv zakon}{{22.4}{136}{Indukovaný proud}{section.22.4}{}}
\@writefile{lof}{\contentsline {figure}{\numberline {22.2}{\ignorespaces Indukovan\IeC {\'y} proud\relax }}{136}{figure.caption.143}\protected@file@percent }
\newlabel{Fig:NMP2}{{22.2}{136}{Indukovaný proud\relax }{figure.caption.143}{}}
\@writefile{toc}{\contentsline {section}{\numberline {22.5}Vlastn\IeC {\'\i } indukce}{136}{section.22.5}\protected@file@percent }
\@writefile{lof}{\contentsline {figure}{\numberline {22.3}{\ignorespaces Vlastn\IeC {\'\i } indukce\relax }}{136}{figure.caption.144}\protected@file@percent }
\newlabel{Fig:NMP3}{{22.3}{136}{Vlastní indukce\relax }{figure.caption.144}{}}
\newlabel{eq:NMP_1}{{22.1}{137}{Vlastní indukce}{equation.22.5.1}{}}
\@writefile{toc}{\contentsline {section}{\numberline {22.6}P\IeC {\v r}echodn\IeC {\'y} d\IeC {\v e}j}{137}{section.22.6}\protected@file@percent }
\@writefile{lof}{\contentsline {figure}{\numberline {22.4}{\ignorespaces P\IeC {\v r}echodn\IeC {\'y} d\IeC {\v e}j\relax }}{137}{figure.caption.145}\protected@file@percent }
\newlabel{Fig:NMP4}{{22.4}{137}{Přechodný děj\relax }{figure.caption.145}{}}
\@writefile{toc}{\contentsline {section}{\numberline {22.7}Energie magnetick\IeC {\'e}ho pole c\IeC {\'\i }vky}{138}{section.22.7}\protected@file@percent }
\@writefile{lof}{\contentsline {figure}{\numberline {22.5}{\ignorespaces Energie magnetick\IeC {\'e}ho pole\relax }}{138}{figure.caption.146}\protected@file@percent }
\newlabel{Fig:NMP5}{{22.5}{138}{Energie magnetického pole\relax }{figure.caption.146}{}}
\@writefile{toc}{\contentsline {chapter}{\numberline {23}Z\IeC {\'a}kladn\IeC {\'\i } poznatky kvantov\IeC {\'e} fyziky}{139}{chapter.23}\protected@file@percent }
\@writefile{lof}{\addvspace {10\p@ }}
\@writefile{lot}{\addvspace {10\p@ }}
\@writefile{toc}{\contentsline {section}{\numberline {23.1}Kvantov\IeC {\'a} hypot\IeC {\'e}za}{139}{section.23.1}\protected@file@percent }
\@writefile{toc}{\contentsline {section}{\numberline {23.2}Vn\IeC {\v e}j\IeC {\v s}\IeC {\'\i } fotoelektrick\IeC {\'y} jev}{139}{section.23.2}\protected@file@percent }
\@writefile{lof}{\contentsline {figure}{\numberline {23.1}{\ignorespaces Sch\IeC {\'e}ma na vn\IeC {\v e}j\IeC {\v s}\IeC {\'\i } fotoelektrick\IeC {\'y} jev\relax }}{140}{figure.caption.147}\protected@file@percent }
\newlabel{Fig:ZPKF1}{{23.1}{140}{Schéma na vnější fotoelektrický jev\relax }{figure.caption.147}{}}
\@writefile{lof}{\contentsline {figure}{\numberline {23.2}{\ignorespaces Vn\IeC {\v e}j\IeC {\v s}\IeC {\'\i } fotoelektrick\IeC {\'y} jev\relax }}{140}{figure.caption.148}\protected@file@percent }
\newlabel{Fig:ZPKF2}{{23.2}{140}{Vnější fotoelektrický jev\relax }{figure.caption.148}{}}
\@writefile{toc}{\contentsline {section}{\numberline {23.3}Dualismus vlna-\IeC {\v c}\IeC {\'a}stice}{140}{section.23.3}\protected@file@percent }
\@writefile{toc}{\contentsline {subsection}{\numberline {23.3.1}Compton\IeC {\r u}v jev}{140}{subsection.23.3.1}\protected@file@percent }
\@writefile{lof}{\contentsline {figure}{\numberline {23.3}{\ignorespaces Compton\IeC {\r u}v jev\relax }}{141}{figure.caption.149}\protected@file@percent }
\newlabel{Fig:ZPKF3}{{23.3}{141}{Comptonův jev\relax }{figure.caption.149}{}}
\@writefile{toc}{\contentsline {section}{\numberline {23.4}De Broglieho hypot\IeC {\'e}za}{141}{section.23.4}\protected@file@percent }
\@writefile{toc}{\contentsline {subsection}{\numberline {23.4.1}Davisson-Germerovy experimenty}{142}{subsection.23.4.1}\protected@file@percent }
\newlabel{Fig:ZPKF4}{{23.4a}{142}{Davisson-Germerův experiment\relax }{figure.caption.150}{}}
\newlabel{sub@Fig:ZPKF4}{{a}{142}{Davisson-Germerův experiment\relax }{figure.caption.150}{}}
\newlabel{Fig:ZPKF5}{{23.4b}{142}{Difrakce elektronů\relax }{figure.caption.150}{}}
\newlabel{sub@Fig:ZPKF5}{{b}{142}{Difrakce elektronů\relax }{figure.caption.150}{}}
\@writefile{toc}{\contentsline {section}{\numberline {23.5}Spektrum atomu}{143}{section.23.5}\protected@file@percent }
\@writefile{lof}{\contentsline {figure}{\numberline {23.5}{\ignorespaces Spektrum z\IeC {\'a}\IeC {\v r}en\IeC {\'\i } atomu\relax }}{143}{figure.caption.151}\protected@file@percent }
\newlabel{Fig:ZPKF6}{{23.5}{143}{Spektrum záření atomu\relax }{figure.caption.151}{}}
\@writefile{toc}{\contentsline {subsection}{\numberline {23.5.1}Spektrum vod\IeC {\'\i }ku}{143}{subsection.23.5.1}\protected@file@percent }
\@writefile{lof}{\contentsline {figure}{\numberline {23.6}{\ignorespaces S\IeC {\'e}rie frekvenc\IeC {\'\i } podle \(m\)\relax }}{144}{figure.caption.152}\protected@file@percent }
\newlabel{Fig:ZPKF7}{{23.6}{144}{Série frekvencí podle \(m\)\relax }{figure.caption.152}{}}
\@writefile{toc}{\contentsline {section}{\numberline {23.6}Modely atomu}{145}{section.23.6}\protected@file@percent }
\@writefile{toc}{\contentsline {section}{\numberline {23.7}Stimulovan\IeC {\'a} emise}{145}{section.23.7}\protected@file@percent }
\@writefile{lof}{\contentsline {figure}{\numberline {23.7}{\ignorespaces Stimulovan\IeC {\'a} emise\relax }}{146}{figure.caption.153}\protected@file@percent }
\newlabel{Fig:ZPKF8}{{23.7}{146}{Stimulovaná emise\relax }{figure.caption.153}{}}
\@writefile{toc}{\contentsline {subsection}{\numberline {23.7.1}Princip laseru}{146}{subsection.23.7.1}\protected@file@percent }
\@writefile{lof}{\contentsline {figure}{\numberline {23.8}{\ignorespaces Konstrukce laseru\relax }}{146}{figure.caption.154}\protected@file@percent }
\newlabel{Fig:ZPKF9}{{23.8}{146}{Konstrukce laseru\relax }{figure.caption.154}{}}
\@writefile{toc}{\contentsline {chapter}{\numberline {24}Jadern\IeC {\'a} fyzika}{148}{chapter.24}\protected@file@percent }
\@writefile{lof}{\addvspace {10\p@ }}
\@writefile{lot}{\addvspace {10\p@ }}
\@writefile{toc}{\contentsline {section}{\numberline {24.1}Atomov\IeC {\'e} j\IeC {\'a}dro}{148}{section.24.1}\protected@file@percent }
\@writefile{toc}{\contentsline {subsection}{\numberline {24.1.1}Silov\IeC {\'e} interakce}{148}{subsection.24.1.1}\protected@file@percent }
\@writefile{toc}{\contentsline {section}{\numberline {24.2}Vazebn\IeC {\'a} energie j\IeC {\'a}dra}{148}{section.24.2}\protected@file@percent }
\@writefile{toc}{\contentsline {subsection}{\numberline {24.2.1}Hmotnostn\IeC {\'\i } \IeC {\'u}bytek}{149}{subsection.24.2.1}\protected@file@percent }
\@writefile{toc}{\contentsline {subsection}{\numberline {24.2.2}Vazebn\IeC {\'a} a separa\IeC {\v c}n\IeC {\'\i } energie}{149}{subsection.24.2.2}\protected@file@percent }
\@writefile{lof}{\contentsline {figure}{\numberline {24.1}{\ignorespaces Graf z\IeC {\'a}vislosti separa\IeC {\v c}n\IeC {\'\i } energie na nukleonov\IeC {\'e}m \IeC {\v c}\IeC {\'\i }sle\relax }}{150}{figure.caption.155}\protected@file@percent }
\newlabel{Fig:JF1}{{24.1}{150}{Graf závislosti separační energie na nukleonovém čísle\relax }{figure.caption.155}{}}
\@writefile{toc}{\contentsline {section}{\numberline {24.3}Jadern\IeC {\'e} reakce}{150}{section.24.3}\protected@file@percent }
\@writefile{lof}{\contentsline {figure}{\numberline {24.2}{\ignorespaces Zn\IeC {\'a}zorn\IeC {\v e}n\IeC {\'\i } jadern\IeC {\'e} reakce\relax }}{150}{figure.caption.156}\protected@file@percent }
\newlabel{Fig:JF2}{{24.2}{150}{Znázornění jaderné reakce\relax }{figure.caption.156}{}}
\@writefile{toc}{\contentsline {subsection}{\numberline {24.3.1}Jadern\IeC {\'a} f\IeC {\'u}ze}{151}{subsection.24.3.1}\protected@file@percent }
\@writefile{lof}{\contentsline {figure}{\numberline {24.3}{\ignorespaces Jadern\IeC {\'a} f\IeC {\'u}ze\relax }}{151}{figure.caption.157}\protected@file@percent }
\newlabel{Fig:JF3}{{24.3}{151}{Jaderná fúze\relax }{figure.caption.157}{}}
\@writefile{toc}{\contentsline {subsection}{\numberline {24.3.2}Jadern\IeC {\'e} \IeC {\v s}t\IeC {\v e}pen\IeC {\'\i }}{151}{subsection.24.3.2}\protected@file@percent }
\newlabel{eq:JF_1}{{24.1}{151}{Jaderné štěpení}{equation.24.3.1}{}}
\@writefile{lof}{\contentsline {figure}{\numberline {24.4}{\ignorespaces Zn\IeC {\'a}zorn\IeC {\v e}n\IeC {\'\i } jadern\IeC {\'e}ho \IeC {\v s}t\IeC {\v e}pen\IeC {\'\i }\relax }}{152}{figure.caption.158}\protected@file@percent }
\newlabel{Fig:JF4}{{24.4}{152}{Znázornění jaderného štěpení\relax }{figure.caption.158}{}}
\@writefile{toc}{\contentsline {subsubsection}{Praktick\IeC {\'e} vyu\IeC {\v z}it\IeC {\'\i }}{152}{section*.159}\protected@file@percent }
\newlabel{Fig:JF5}{{24.5a}{153}{Reakce v jaderném reaktoru\relax }{figure.caption.160}{}}
\newlabel{sub@Fig:JF5}{{a}{153}{Reakce v jaderném reaktoru\relax }{figure.caption.160}{}}
\newlabel{Fig:JF6}{{24.5b}{153}{Reakce v jaderné bombě\relax }{figure.caption.160}{}}
\newlabel{sub@Fig:JF6}{{b}{153}{Reakce v jaderné bombě\relax }{figure.caption.160}{}}
\@writefile{toc}{\contentsline {subsection}{\numberline {24.3.3}Transmutace}{153}{subsection.24.3.3}\protected@file@percent }
\@writefile{toc}{\contentsline {section}{\numberline {24.4}Jadern\IeC {\'e} elektr\IeC {\'a}rny}{153}{section.24.4}\protected@file@percent }
\@writefile{toc}{\contentsline {subsection}{\numberline {24.4.1}Jadern\IeC {\'y} reaktor}{153}{subsection.24.4.1}\protected@file@percent }
\@writefile{toc}{\contentsline {chapter}{\numberline {25}Radioaktivita}{155}{chapter.25}\protected@file@percent }
\@writefile{lof}{\addvspace {10\p@ }}
\@writefile{lot}{\addvspace {10\p@ }}
\newlabel{radioaktivia}{{25}{155}{Radioaktivita}{chapter.25}{}}
\@writefile{toc}{\contentsline {section}{\numberline {25.1}Z\IeC {\'a}kladn\IeC {\'\i } informace}{155}{section.25.1}\protected@file@percent }
\@writefile{toc}{\contentsline {subsection}{\numberline {25.1.1}Historie}{155}{subsection.25.1.1}\protected@file@percent }
\newlabel{historie}{{25.1.1}{155}{Historie}{subsection.25.1.1}{}}
\@writefile{toc}{\contentsline {section}{\numberline {25.2}Druhy radioaktivn\IeC {\'\i }ho z\IeC {\'a}\IeC {\v r}en\IeC {\'\i }}{156}{section.25.2}\protected@file@percent }
\@writefile{lof}{\contentsline {figure}{\numberline {25.1}{\ignorespaces \IeC {\v C}\IeC {\'a}stice radioaktivn\IeC {\'\i }ho z\IeC {\'a}\IeC {\v r}en\IeC {\'\i } v magnetick\IeC {\'e}m poli\relax }}{156}{figure.caption.161}\protected@file@percent }
\newlabel{Fig:R1}{{25.1}{156}{Částice radioaktivního záření v magnetickém poli\relax }{figure.caption.161}{}}
\@writefile{toc}{\contentsline {subsection}{\numberline {25.2.1}Z\IeC {\'a}\IeC {\v r}en\IeC {\'\i } \(\alpha \)}{156}{subsection.25.2.1}\protected@file@percent }
\@writefile{toc}{\contentsline {subsection}{\numberline {25.2.2}Z\IeC {\'a}\IeC {\v r}en\IeC {\'\i } \(\beta \) }{157}{subsection.25.2.2}\protected@file@percent }
\@writefile{toc}{\contentsline {subsubsection}{Z\IeC {\'a}\IeC {\v r}en\IeC {\'\i } \(\beta ^{-}\) }{157}{section*.162}\protected@file@percent }
\@writefile{toc}{\contentsline {subsubsection}{Z\IeC {\'a}\IeC {\v r}en\IeC {\'\i } \(\beta ^ +\) }{157}{section*.163}\protected@file@percent }
\@writefile{toc}{\contentsline {subsubsection}{Charakteristika z\IeC {\'a}\IeC {\v r}en\IeC {\'\i } \(\beta \) }{157}{section*.164}\protected@file@percent }
\@writefile{toc}{\contentsline {subsection}{\numberline {25.2.3}Z\IeC {\'a}\IeC {\v r}en\IeC {\'\i } \(\gamma \)}{157}{subsection.25.2.3}\protected@file@percent }
\@writefile{toc}{\contentsline {section}{\numberline {25.3}Radioaktivita v praxi}{158}{section.25.3}\protected@file@percent }
\@writefile{toc}{\contentsline {subsection}{\numberline {25.3.1}Vyu\IeC {\v z}it\IeC {\'\i } radioaktivity}{158}{subsection.25.3.1}\protected@file@percent }
\@writefile{toc}{\contentsline {subsection}{\numberline {25.3.2}Ochrana p\IeC {\v r}ed radioaktivn\IeC {\'\i }m z\IeC {\'a}\IeC {\v r}en\IeC {\'\i }m}{158}{subsection.25.3.2}\protected@file@percent }
\@writefile{toc}{\contentsline {section}{\numberline {25.4}Rozpadov\IeC {\'e} \IeC {\v r}ady}{158}{section.25.4}\protected@file@percent }
\@writefile{toc}{\contentsline {section}{\numberline {25.5}Matematick\IeC {\'y} popis radioaktivity}{158}{section.25.5}\protected@file@percent }
\@writefile{lof}{\contentsline {figure}{\numberline {25.2}{\ignorespaces Z\IeC {\'a}vislost po\IeC {\v c}tu nep\IeC {\v r}em\IeC {\v e}n\IeC {\v e}n\IeC {\'y}ch jader na \IeC {\v c}ase\relax }}{159}{figure.caption.165}\protected@file@percent }
\newlabel{Fig:R2}{{25.2}{159}{Závislost počtu nepřeměněných jader na čase\relax }{figure.caption.165}{}}
\@writefile{toc}{\contentsline {section}{\numberline {25.6}Urychlova\IeC {\v c}e \IeC {\v c}\IeC {\'a}stic}{160}{section.25.6}\protected@file@percent }
\@writefile{lof}{\contentsline {figure}{\numberline {25.3}{\ignorespaces Cyklotron\relax }}{160}{figure.caption.166}\protected@file@percent }
\newlabel{Fig:R3}{{25.3}{160}{Cyklotron\relax }{figure.caption.166}{}}
\@writefile{toc}{\contentsline {section}{\numberline {25.7}Element\IeC {\'a}rn\IeC {\'\i } \IeC {\v c}\IeC {\'a}stice}{161}{section.25.7}\protected@file@percent }
\@writefile{toc}{\contentsline {subsection}{\numberline {25.7.1}Hadrony}{161}{subsection.25.7.1}\protected@file@percent }
\@writefile{toc}{\contentsline {paragraph}{Kvarky}{161}{section*.167}\protected@file@percent }
\@writefile{toc}{\contentsline {subsubsection}{St\IeC {\v r}edn\IeC {\v e} t\IeC {\v e}\IeC {\v z}k\IeC {\'e} \IeC {\v c}\IeC {\'a}stice - Mezony}{161}{section*.168}\protected@file@percent }
\@writefile{toc}{\contentsline {subsubsection}{Velmi t\IeC {\v e}\IeC {\v z}k\IeC {\'e} \IeC {\v c}\IeC {\'a}stice - Baryony}{161}{section*.169}\protected@file@percent }
\@writefile{toc}{\contentsline {subsection}{\numberline {25.7.2}Leptony}{161}{subsection.25.7.2}\protected@file@percent }
\@writefile{toc}{\contentsline {subsection}{\numberline {25.7.3}D\IeC {\v e}len\IeC {\'\i } podle spinu}{162}{subsection.25.7.3}\protected@file@percent }
\@writefile{toc}{\contentsline {subsubsection}{Fermiony}{162}{section*.170}\protected@file@percent }
\@writefile{toc}{\contentsline {subsubsection}{Bosony}{162}{section*.171}\protected@file@percent }
\@writefile{toc}{\contentsline {section}{\numberline {25.8}Detekce \IeC {\v c}\IeC {\'a}stic}{162}{section.25.8}\protected@file@percent }
\@writefile{toc}{\contentsline {subsection}{\numberline {25.8.1}Geiger-Muller\IeC {\r u}v po\IeC {\v c}\IeC {\'\i }ta\IeC {\v c}}{162}{subsection.25.8.1}\protected@file@percent }
\@writefile{lof}{\contentsline {figure}{\numberline {25.4}{\ignorespaces Geiger-Muller\IeC {\r u}v po\IeC {\v c}\IeC {\'\i }ta\IeC {\v c}\relax }}{162}{figure.caption.172}\protected@file@percent }
\newlabel{Fig:R4}{{25.4}{162}{Geiger-Mullerův počítač\relax }{figure.caption.172}{}}
